Product: Name,Product: Description,Product: Product Category Type,Product: Reseller Cost,Product: Sale Price
Magtek iDynamo 5 w/ Vantiv,iDynamo 5 Card Reader - Lightning Connector - Vantiv encryption - Includes iDynamo charging cable,Card Readers,130,160
Magtek iDynamo 5 w/ Paypal,iDynamo 5 Card Reader - Lightning Connector - Paypal encryption - Includes iDynamo charging cable,Card Readers,110,140
IDTECH USB Reader w/ Vantiv,USB Card Reader - Vantiv encryption - REQUIRED: Epson TM-T88vi,Card Readers,85,150
USB Reader w/ Heartland,USB Card Readers - Heartland encryption - REQUIRED: Epson TM-88vi,Card Readers,98,150
MagTek iDynamo 5 w/ USAePay,MagTek iDynamo 5 w/ USAePay with Charging Cable,Card Readers,88,134
Square Contactless and Chip Reader,Square Contactless and Chip Reader,Card Readers,49,49
Square Stand for Contactless and Chip,Square Stand for Contactless and Chip\n,Card Readers,169,169
Credit Card Imprinter with 100 Sales Slips,Credit Card Imprinter with 100 Sales Slips,Card Readers,40,50
Magtek iDynamo 5 w/ BridgePay,iDynamo 5 Card Reader - Lightning Connector - BridgePay encryption - Includes iDynamo charging cable,Card Readers,110,140
IDTECH USB Reader w/ Bridgepay,USB Card Reader - Bridgepay encryption - REQUIRED: Epson TM-T88vi,Card Readers,80,150
PayPal - VClip,PayPal - VClip,Card Readers,30,40
PayPal - Stand for Miura Chip Card Reader,PayPal - Stand for Miura Chip Card Reader,Card Readers,55,69
Dejavoo Z9 - WIFI,Dejavoo Z9 - WIFI,Card Readers,375,390
PAX S300 Credit Card Terminal,PAX S300 Credit Card Terminal,Card Readers,199,230
Socket 1D Barcode Scanner - Gray,"Socket Mobile Bluetooth 1D Barcode Scanner - Series 7 - Gray - Scanner, Batteries, and Charging Kit included \n\n",Card Readers,205,229
Socket 1D/2D Barcode Charging Stand,Socket 1D/2D Barcode Charging Stand - Series 7\n\n,Card Readers,120,129
PAX D210 Mobile Payment Terminal,Pax D210 Mobile Payment Terminal,Card Readers,385,395
PAX S80 Countertop Payment Terminal,PAX S80 Countertop Payment Terminal,Card Readers,137,160
Square Chip Reader,Square Chip Reader,Card Readers,29,29
Miura EMV Card Reader - PayPal,PayPal EMV Chip Card Reader,Card Readers,0,150
Dejavoo Z11,Dejavoo Z11,Card Readers,225,258
Dock for Square Reader,Dock for Square Reader,Card Readers,29,29
PayPal Chip and Tap Reader,PayPal Chip and Tap Reader - Stand Not Included (LAVU KIOSK ONLY)\n\n,Card Readers,60,60
Card Reader Cleaning Card - Pack of 10,Card Reader Cleaning Card - Pack of 10,Card Readers,15,20
Heavy Duty 90 Degree Micro SD Cord - Right,"6' USB Cable, Heavy Duty, 90 Degree",Card Readers: Cable,10,15
Heavy Duty 90 Degree Micro SD Cord - Left,"6' USB Cable, Heavy Duty, 90 Degree",Card Readers: Cable,10,15
iDynamo Charging Cable,iDynamo Charging Cable - USB A Male to Micro 5pin Male - 6Fft - Black,Card Readers: Cable,10,20
Lightning to USB Charging Cable - 10ft Black,Lightning to USB Charging Cable - 10ft Black,Card Readers: Cable,8,20
Vault Cable - Lightning to USB - 90 Degree - Black,Vault Cable - Lightning to USB - 90 Degree - Black,Card Readers: Cable,21,25
5 Bill 5 Coin Cash Drawer with Stainless Steel Front,APG Cash Drawer with 5 Bill 5 Coin Till - Stainless Steel Front - Dual Media Slots - Size: 16.2in x 16.3in x 4.3in; Cash Drawer Cable Included for Auto-Open,Cash Drawer,100,260
5 Bill 5 Coin Heavy Duty Cash Drawer with Black Front,APG Heavy Duty Cash Drawer with 4 Bill 4 Coin Till - Black Front - Dual Media Slots - Size: 6.0in x 16.8in x 4.9in; Cash Drawer Cable REQUIRED for auto-open,Cash Drawer,136,270
4 Bill 4 Coin Cash Drawer with Black Front,APG Cash Drawer with 4 Bill 4 Coin Till - Black Front - Single Media Slot - Size: 13.1in x 13.1in x 3.93in; Cash Drawer Cable Included for Auto-Open,Cash Drawer,95,180
5 Bill 5 Coin Cash Drawer with Black Front,APG Cash Drawer with 5 Bill 5 Coin Till - Black Front - Dual Media Slots - Size: 16.2in X 16.3in x 4.3in ; Cash Drawer Cable Included for Auto-Open,Cash Drawer,110,180
5 Bill 5 Coin Cash Drawer with Black Front - Manual Open,APG Cash Drawer with 5 Bill 5 Coin Till - Black Front - Dual Media Slots - Size: 16.2in X 16.3in x 4.3in ; Manual Open Only,Cash Drawer,98,182
APG Dual Cash Drawer Cable Kit,APG Dual Cash Drawer Cable Kit - Splitter & B Cable Included,Cash Drawer,25,30
5 Bill 5 Coin Cash Drawer - All White,APG Cash Drawer with 5 Bill 5 Coin Till - All White - Dual Media Slots - Size: 16.2in X 16.3in x 4.3in ; Cash Drawer Cable Included for Auto-Open,Cash Drawer,108,180
"Cash Drawer - 16"" x 11""","APG Cash Drawer - 16"" x 11"" Size: 16.0 x 11.5 x 4.9 inches; Cash Drawer Cable Included for Auto-Open",Cash Drawer,225,385
**OPEN BOX. FINAL SALE. NO WARRANTY** 4 Bill 4 Coin Cash Drawer with Black Front,**OPEN BOX. FINAL SALE. NO WARRANTY** APG Cash Drawer with 4 Bill 4 Coin Till - Black Front - Single Media Slot - Size: 13.1in x 13.1in x 3.93in; Cash Drawer Cable Included for Auto-Open,Cash Drawer,80,100
Cash Drawer Under Counter Mounting Brackets - 4 Bill 4 Coin,Cash Drawer Under Counter Mounting Brackets - 4 Bill 4 Coin,Cash Drawer: Accessory,27,45
Till for 5 Bill 5 Coin Cash Drawer,APG Cash Drawer Till for 5 Bill 5 Coin Cash Drawer,Cash Drawer: Accessory,19,50
Till for 4 Bill 4 Coin Cash Drawer,APG Cash Drawer Till for 4 Bill 4 Coin Cash Drawer,Cash Drawer: Accessory,17,35
Locking Till Cover for 4 Bill 4 Coin Cash Drawer,Locking Till for 4 Bill 4 Coin Cash Drawer,Cash Drawer: Accessory,30,37
Coin Cups,Coin Cups for 5 Bill/5 Coin Till,Cash Drawer: Accessory,26,48
Cash Drawer Under Counter Mounting Brackets - 5 Bill/5 Coin and 4 Bill/5 Coin Drawers,Cash Drawer Under Counter Mounting Brackets - Compatible with 5 Bill/5 Coin and 4 Bill/5 Coin Drawers,Cash Drawer: Accessory,27,45
Cash Drawer Cable,APG Cash Drawer Interface Cable for 24V Cash Drawers - Connection Type: RJ12 to RJ45,Cash Drawer: Accessory,12,20
Locking Till Cover for 5 Bill 5 Coin Cash Drawer,APG Cash Drawer Locking Till Cover for 5 Bill 5 Coin Till,Cash Drawer: Accessory,18,37
"6-Outlet Surge Protector Power Strip 2-Pack, 200 Joule - Black","6-Outlet Surge Protector Power Strip 2-Pack, 200 Joule - Black",Computer,11,20
APC Battery Backup - BK350,APC Battery Backup - BK350,Computer,90,123
Monthly Subscription - 3Ply Impact Paper - Case of 50 Rolls,"Monthly Subscription - Paper for Epson Impact Printers - 3Ply White, Yellow and Pink Paper - Case of 50 - Compatible with Epson TM-U220 - Size: 3in x 67ft; Core: 0.45in\n",Consumables,100,120
Thermal Receipt Paper - Case of 50 Rolls,Paper for Thermal Receipt Printers - White Paper - Case of 50 rolls - Compatible with all Epson TM Models - Size: 3.12in X 230ft; Core: 0.45in,Consumables,85,100
 2Ply Impact Paper - Case of 50 Rolls,Paper for Epson Impact Printers - 2Ply White and Yellow Paper - Case of 50 - Compatible with Epson TM-U220 - Size: 3in x 100ft; Core: 0.45in,Consumables,65,85
3Ply Impact Paper - Case of 50 Rolls,"Paper for Epson Impact Printers - 3Ply White, Yellow and Pink Paper - Case of 50 - Compatible with Epson TM-U220 - Size: 3in x 67ft; Core: 0.45in\n",Consumables,100,120
"Receipt Paper - Case of 50 rolls- Compatible w/ Epson TM-P60ii, Pax S80, Dejavoo Z8 and Dejavoo Z11","Paper for Receipt Printers - Compatible with Epson TM-P60ii, Pax S80, Dejavoo Z8 and Dejavoo Z11 - Case of 50 rolls - White Paper - Size: 2.25"" x 75'; Coreless",Consumables,40,50
Receipt Paper - Case of 72 rolls - Compatible w/ Epson TM-P80,"Paper for Receipt Printers - Compatible with Epson TM-P80 - Case of 72 rolls - White Paper - Size: 3.125"" x 90'; Core: 0.85""",Consumables,48,58
Monthly Subscription - Thermal Receipt Paper - Case of 50 Rolls,Monthly Subscription - Paper for Thermal Receipt Printers - White Paper - Case of 50 rolls - Compatible with all Epson TM Models - Size: 3.12in X 230ft; Core: 0.45in,Consumables,85,100
Paper Club - 1Ply Impact Paper - Case of 50 Rolls,Monthly Subscription - Paper for Epson Impact Printers - 1Ply White Paper - Case of 50 rolls - Compatible with Epson TM-U220 - Size: 3in x 165ft; Core: 0.45in,Consumables,42,75
Monthly Subscription - 2Ply Impact Paper - Case of 50 Rolls,Monthly Subscription - Paper for Epson Impact Printers - 2Ply White and Yellow Paper - Case of 50 - Compatible with Epson TM-U220 - Size: 3in x 100ft; Core: 0.45in,Consumables,65,85
Monthly Subscription - Adhesive Sticky Paper,Monthly Subscription - Adhesive Sticky Paper for Epson TM-T88 Thermal Printers - Case of 24 Rolls,Consumables,237,295
Sales Slips (100/ea),Credit Card Imprinter Sales Slips (100/ea),Consumables,15,25
1Ply Impact Paper - Case of 50 Rolls,Paper for Epson Impact Printers - 1Ply White Paper - Case of 50 rolls - Compatible with Epson TM-U220 - Size: 3in x 165ft; Core: 0.45in,Consumables,42,75
Ribbon for Epson Impact Printer - Case of 10 Ribbon,Ribbon - Epson Impact Printers - Black/Red - Case of 10 Ribbon,Consumables,25,30
Ribbon for Star Micronics Impact Printer - Case of 10 Ribbon,Ribbon - Star Micronics Impact Printers - Black/Red - Case of 10 Ribbon\n,Consumables,40,45
Adhesive Sticky Paper - Direct Thermal,Paper - Adhesive Sticky Paper - For Epson TM-T88 - 24 Rolls,Consumables,237,295
"Receipt Paper -Case of 36 rolls -Compatible w/Epson TM-P20, Pax D210, Dejavoo Z1 and Dejavoo Z9","Paper for Receipt Printers - Compatible with Epson TM-P20, Pax D210, Pax Z1 and Dejavoo Z9 - Case of 36 rolls - White Paper - Size: 2.25"" x 50'4M); Core: 0.75""",Consumables,30,35
Paper Club - Epson Ribbon - Case of 10,Ribbon - Epson Impact Printers - Black/Red - Case of 10 Ribbon,Consumables,25,30
Networking Configuration,Networking Configuration Fee,Networking,37,99
Lavu Integrated Payments - Terminal Setup,Lavu Integrated Payments - Terminal Setup,Other Services,50,79
2x1 Menu Board Wall Mount - Portrait,"2x1 Menu Board Wall Mount - Accommodates 40-55"" Monitors - Portrait ",Digital Menu Board,405,475
"Digital Signage Installation - Up To 43""","Digital Signage Installation Up To 43"" Monitor - Wall mounted up to 8ft, measured from floor to center of panel & up to 150ft of network cabling",Digital Menu Board,185,240
Digital Signage Installation - Custom,Digital Signage Installation - Custom,Digital Menu Board,0,0
3x1 Menu Board Ceiling Mount - Landscape,"3x1 Menu Board Ceiling Mount - Accommodates 40-55"" Monitors - Landscape - (Poles and ceiling brackets not included)",Digital Menu Board,660,785
3-5' Adjustable Extension Column,"Height Adjustment in 1"" increments, adjustment without disassembly, 1.5"" NPT column, threaded on both ends",Digital Menu Board,115,150
Lavu Menu Board/Signage - Annual Subscription,Lavu Menu Board/Signage - Annual Subscription\n,Digital Menu Board,210,300
Lavu Menu Board/Signage - Monthly Subscription,Lavu Menu Board/Signage - Monthly Subscription,Digital Menu Board,18,25
"32"" Digital Signage Monitor With SOC","32"" Digital Signage Monitor With SOC Media Player Built In",Digital Menu Board,520,675
Digital Menu Design Package 1,"Digital Menu Design Package 1 - Includes:\n\n1 ea wire frame, 2 design concepts (1 revision), inputting of menu items, nutritionals, descriptions (1 revision), develop one playlist schedule (1 revision)",Digital Menu Board,265,375
"55"" Digital Signage Monitor With SOC","55"" Digital Signage Monitor With SOC Media Player Built In",Digital Menu Board,1030,1250
Small Tilt Wall Mount - Single Stud Mount - Portrait,"24-32"" tilt wall mount - Single Stud Mount - Portrait",Digital Menu Board,120,155
"65"" Digital Signage Monitor With SOC","65"" Digital Signage Monitor With SOC Media Player Built In",Digital Menu Board,1570,1925
2x1 Menu Board Wall Mount - Landscape,"2x1 Menu Board Wall Mount - Accommodates 40-55"" Monitors - Landscape",Digital Menu Board,405,475
4x1 Menu Board Wall Mount - Landscape,"4x1 Menu Board Wall Mount - Accommodates 40-55"" Monitors - Landscape",Digital Menu Board,960,1160
"43"" Digital Signage Monitor With SOC","43"" Digital Signage Monitor With SOC Media Player Built In",Digital Menu Board,650,775
Medium Tilt Wall Mount - Landscape,"32-47"" tilt wall mount - Landscape",Digital Menu Board,130,145
3x1 Menu Board Wall Mount - Landscape,"3x1 Menu Board Wall Mount - Accommodates 40-55"" Monitors  - Landscape",Digital Menu Board,660,785
Offset Unistrut Adapter supports (500lb capacity),"Makes installation to all styles of 1.63"" Unistrut/U-Channel. Ships with spring nuts and bolts for attaching to Unistrut®/U-Channel.",Digital Menu Board,46,60
"Digital Signage Installation - 44-70""","Digital Signage Installation 44-70"" Monitor - Wall mounted up to 8ft, measured from floor to center of panel & up to 150ft of network cabling",Digital Menu Board,290,350
Large Tilt Wall Mount - Landscape,"37-65"" tilt wall mount - Landscape",Digital Menu Board,195,225
"49"" Digital Signage Monitor With SOC","49"" Digital Signage Monitor With SOC Media Player Built In",Digital Menu Board,780,935
Medium Tilt Wall Mount - Portrait,"43-65"" tilt wall mount - Portrait",Digital Menu Board,115,145
Decorative Trim Ring for Outer Adjustable Column,Decorative finishing trim ring for the outside of adjustable extension column,Digital Menu Board,20,25
"1,000 Carriers - Custom Style 1","1,000 Custom Carriers - Custom Style 1 - Fold over 4""x6""",Gift Cards,325,435
"2,000 Carriers - Custom Style 1","2,000 Custom Carriers - Custom Style 1 - Fold over 4""x6""",Gift Cards,520,640
Pre-Printed Gift Cards - 100 Cards,Pre-Printed Gift Cards - 100 Cards - \nIncludes 5 Lines of Customizable Text on back of card,Gift Cards,65,80
Gift Card Kickoff Kit - PrePrinted,Gift Card Kickoff Kit - PrePrinted,Gift Cards,37,100
250 Carriers - Custom Style 1,"250 Custom Carriers - Fold over 4""x6""",Gift Cards,142,203
100 Custom Gift Cards - Standard Production - 5-7 Days,100 Custom Gift Cards - Standard Production - 5-7 Days,Gift Cards,110,160
"2,000 Custom Gift Cards - Standard Production - 5-7 Days","2,000 Custom Gift Cards - Standard Production - 5-7 Days",Gift Cards,646,920
"10,000 Custom Gift Cards - Standard Production - 5-7 Days","10,000 Custom Gift Cards - Standard Production - 5-7 Days",Gift Cards,1995,2850
Overnight Shipping Gift Cards,Overnight Shipping Gift Cards,Gift Cards,135,135
250 Custom Gift Cards - Rush Production - 3 Days,250 Custom Gift Cards - Rush Production - 3 Days,Gift Cards,238,340
"1,000 Custom Gift Cards - Rush Production - 3 Days","1,000 Custom Gift Cards - Rush Production - 3 Days",Gift Cards,426,605
"1,500 Custom Gift Cards - Rush Production - 3 Days","1,500 Custom Gift Cards - Rush Production - 3 Days",Gift Cards,613,875
"2,000 Custom Gift Cards - Rush Production - 3 Days","2,000 Custom Gift Cards - Rush Production - 3 Days",Gift Cards,784,1120
"10,000 Custom Gift Cards - Rush Production - 3 Days","10,000 Custom Gift Cards - Rush Production - 3 Days",Gift Cards,2389,3420
250 Custom Gift Card - Urgent Production - 1-3 Days,250 Custom Gift Card - Urgent Production - 1-3 Days,Gift Cards,283,405
"10,000 Custom Gift Card - Urgent Production - 1-3 Days","10,000 Custom Gift Card - Urgent Production - 1-3 Days",Gift Cards,2783,3975
Imaging Setup Fee,Imaging Setup Fee,Gift Cards,0,50
Gift Card Kickoff Kit - 2nd Day Shipping,Gift Card Kickoff Kit - 2nd Day Shipping,Gift Cards,0,85
"5,000 Custom Gift Card - Urgent Production - 1-3 Days","5,000 Custom Gift Card - Urgent Production - 1-3 Days",Gift Cards,1925,2750
Gift Card Kickoff Kit - Overnight Shipping,Gift Card Kickoff Kit - Overnight Shipping,Gift Cards,0,145
"1,000 Carriers - Custom Style 4","1,000 Custom Carriers - Tucked Flap",Gift Cards,305,435
Acrylic Gift Card Stand,Acrylic Gift Card Stand,Gift Cards,13,25
250 Carriers - Custom Style 4,250 Custom Carriers - Tucked Flap,Gift Cards,142,225
Pre-Printed Gift Card Carrier - 250 Carriers,Pre-Printed Gift Card Carrier - 250 Carriers ,Gift Cards,53,125
6000 Carriers - Custom Style 1,"6000 Custom Carriers - Style 1- Fold over 4""x6""",Gift Cards,1550,1900
"7,000 Custom Gift Cards - Standard Production - 5-7 Days","7,000 Custom Gift Cards - Standard Production - 5-7 Days",Gift Cards,1400,2100
"5,000 Custom Gift Cards - Rush Production - 3 Days","5,000 Custom Gift Cards - Rush Production - 3 Days",Gift Cards,1636,2340
"1,000 Custom Gift Card - Urgent Production - 1-3 Days","1,000 Custom Gift Card - Urgent Production - 1-3 Days",Gift Cards,502,725
500 Custom Gift Cards - Standard Production - 5-7 Days,500 Custom Gift Cards - Standard Production - 5-7 Days,Gift Cards,285,400
250 Custom Gift Cards - Standard Production - 5-7 Days,250 Custom Gift Cards - Standard Production - 5-7 Days,Gift Cards,183,275
"1,000 Custom Gift Cards - Standard Production - 5-7 Days","1,000 Custom Gift Cards - Standard Production - 5-7 Days",Gift Cards,370,500
"1,500 Custom Gift Cards - Standard Production - 5-7 Days","1,500 Custom Gift Cards - Standard Production - 5-7 Days",Gift Cards,504,1000
"2,500 Custom Gift Cards - Rush Production - 3 Days","2,500 Custom Gift Cards - Rush Production - 3 Days",Gift Cards,913,1300
500 Custom Gift Card - Urgent Production - 1-3 Days,500 Custom Gift Card - Urgent Production - 1-3 Days,Gift Cards,383,550
"2,500 Custom Gift Cards - Standard Production - 5-7 Days","2,500 Custom Gift Cards - Standard Production - 5-7 Days",Gift Cards,749,1075
"5,000 Custom Gift Cards - Standard Production - 5-7 Days","5,000 Custom Gift Cards - Standard Production - 5-7 Days",Gift Cards,1347,1925
500 Custom Gift Cards - Rush Production - 3 Days,500 Custom Gift Cards - Rush Production - 3 Days,Gift Cards,324,460
"1,500 Custom Gift Card - Urgent Production - 1-3 Days","1,500 Custom Gift Card - Urgent Production - 1-3 Days",Gift Cards,722,1050
"2,000 Custom Gift Card - Urgent Production - 1-3 Days","2,000 Custom Gift Card - Urgent Production - 1-3 Days",Gift Cards,922,1325
"2,500 Custom Gift Card - Urgent Production - 1-3 Days","2,500 Custom Gift Card - Urgent Production - 1-3 Days",Gift Cards,1077,1540
Gift Card Import Fee,Gift Card Import Fee,Gift Cards,125,250
500 Carriers - Custom Style 3,"500 Custom Carriers - Style 3 - Pocket Book Style Holder with Tuck Flap 4.25"" x 6""",Gift Cards,235,300
500 Carriers - Custom Style 1,"500 Custom Carriers - Style 1 - Fold over 4""x6""",Gift Cards,235,300
"3,000 Custom Gift Cards - Standard Production - 5-7 Days","3,000 Custom Gift Cards - Standard Production - 5-7 Days",Gift Cards,900,1115
500 Custom Carriers - Style 4 - Tucked Flap,500 Custom Carriers - Style 4 - Tucked Flap,Gift Cards,235,300
250 Carriers - Custom Style 3,"250 Custom Carriers - Fold over 4""x6""",Gift Cards,142,203
Professional Onsite POS Installation - 5-8 Terminals,Professional Onsite POS Installation - 5-8 Terminals - Includes Hardware Configuration + Menu Build (4 Hours) + Lavu 2 Week Tune Up,Installations,1800,2649
Professional Lavu Kitchen Display System (KDS) Installation,Professional Lavu Kitchen Display System (KDS) Installation - Per Terminal,Installations,132,163
Lavu Remote Installation - Per Hour,Lavu Remote Installation - Per Hour\n,Installations,100,100
Professional Network Cable Installation,Professional Network Cable Installation - Per Hour,Installations,132,163
Professional Onsite POS Installation - 3-4 Terminals,Professional Onsite POS Installation - 3-4 Terminals - Includes Hardware Configuration + Menu Build (4 Hours) + Lavu 2 Week Tune Up,Installations,1250,1599
Professional Epson Kitchen Display System (KDS) Installation,Professional Epson Kitchen Display System (KDS) Installation - Per Terminal,Installations,132,165
Professional Onsite Hours - Pre-Installation Survey (Priority),Professional Onsite Hours - Pre-Installation Survey (Priority),Installations,184,230
Professional Onsite POS Installation - 1-2 Terminals,Professional Onsite POS Installation - 1-2 Terminals - Includes Hardware Configuration + Menu Build (4 Hours) + Lavu 2 Week Tune Up,Installations,699,999
Additional Professional Onsite Hours,Additional Professional Onsite Hours - Per Hour,Installations,90,110
Professional Onsite POS Installation - 5 Terminals,Professional Onsite POS Installation - 5 Terminals - Includes Hardware Configuration + Menu Build (4 Hours) + Lavu 2 Week Tune Up,Installations,1750,2095
Professional Onsite Hours - Pre-Installation Survey (Standard),Professional Onsite Hours - Pre-Installation Survey (Standard),Installations,110,130
Epson KDS - 8 Station Bundle,"Epson KDS - 8 Station Bundle - Includes 1x Impact Printer, 8x Expansion Modules and 8x Bump Bars - Configuration Included - (Monitor Not Included)\n\nNote: If any support or configuration is needed after initial configuration, a Windows OS Computer must be onsite and on the same LAN as Lavu. *Additional Configuration Fee will apply.",KDS,4100,5100
Monitor Mount - Adjustable Tilting and Swivel Wall Mount - 13in to 27in,"Monitor Mount - Adjustable Tilt and Swivel Wall Mount Bracket  - For TVs 13in to 27in - Extension Range of 1.8in to 3.9in, VESA Patterns Up to 100x100\n",KDS,30,35
Cable - 6.5' HDMI Cable,6.5' HDMI Cable,KDS,5,7
Epson KDS - 1 Station Bundle,"Epson KDS - 1 Station Bundle - Includes 1x Impact Printer and 1x Bump Bar - Configuration Included - (Monitor Not Included)\n\nNote: If any support or configuration is needed after initial configuration, a Windows OS Computer must be onsite and on the same LAN as Lavu. *Additional Configuration Fee will apply.",KDS,685,1095
Epson KDS - KDS Expansion Bundle,"Epson KDS - KDS Expansion Bundle - For when you already have 2 or more existing KDS Stations - Includes 1x Expansion Modules and 1x Bump Bar - Configuration Included (Monitor Not Included) \n\nNote: If any support or configuration is needed after initial configuration, a Windows OS Computer must be onsite and on the same LAN as Lavu. *Additional Configuration Fee will apply.				",KDS,520,800
Epson KDS Bump Bar,Epson KDS Bump Bar,KDS,135,163
KDS Monitor - 32 inch,KDS LED Monitor - 32 inch - Black - 1920x1080\n,KDS,260,315
Epson KDS Software Activation Fee,Epson KDS Software Activation Fee,KDS,0,500
Epson KDS - Additional Station for the 1st Station KDS,"Epson KDS - Additional Station for the 1st Station KDS - Includes 2x Expansion Modules and 1x Bump Bar - Configuration Included (Monitor Not Included) \n\nNote: If any support or configuration is needed after initial configuration, a Windows OS Computer must be onsite and on the same LAN as Lavu. *Additional Configuration Fee will apply.				",KDS,880,1430
Epson KDS - 3 Station Bundle,"Epson KDS - 3 Station Bundle - Includes 1x Impact Printer, 3x Expansion Modules and 3x Bump Bars - Configuration Included - (Monitor Not Included)\n\nNote: If any support or configuration is needed after initial configuration, a Windows OS Computer must be onsite and on the same LAN as Lavu. *Additional Configuration Fee will apply.",KDS,1790,3100
Epson KDS - 4 Station Bundle,"Epson KDS - 4 Station Bundle - Includes 1x Impact Printer, 4x Expansion Modules and 4x Bump Bars - Configuration Included - (Monitor Not Included)\n\nNote: If any support or configuration is needed after initial configuration, a Windows OS Computer must be onsite and on the same LAN as Lavu. *Additional Configuration Fee will apply.",KDS,2300,2900
Epson KDS - KDS Expansion Module,Epson KDS - KDS Expansion Module,KDS,380,634
Epson KDS Configuration Fee,Epson KDS Configuration Fee,KDS,0,100
Monitor Mount - Silver & Black Full-Motion Tilt/Swivel,"Monitor  Wall Mount - Silver & Black Full-Motion Tilt/Swivel Adjustable Wall Mount Bracket - Max 44 lbs, 13 - 27 inch",KDS,32,40
Epson KDS - 6 Station Bundle,"Epson KDS - 6 Station Bundle - Includes 1x Impact Printer, 6x Expansion Modules and 6x Bump Bars - Configuration Included - (Monitor Not Included)\n\nNote: If any support or configuration is needed after initial configuration, a Windows OS Computer must be onsite and on the same LAN as Lavu. *Additional Configuration Fee will apply.",KDS,3300,4200
KDS Monitor - 21.5 inch,KDS LED Monitor - 21.5 inch - Black - 1680 x 1050,KDS,175,220
KDS Bump Bar Wall Mount,KDS Bump Bar Wall Mount,KDS,20,25
Monitor Mount - Adjustable Tilting and Swivel Wall Mount - 24in to 37in,"Monitor Mount - Adjustable Tilt and Swivel Wall Mount Bracket - For TVs 24in to 37in - Extension Range of 3.2in to 9.7in, VESA Patterns Up to 200x200\n",KDS,45,55
Epson KDS - 2 Station Bundle,"Epson KDS - 2 Station Bundle - Includes 1x Impact Printer, 2x Expansion Modules and 2x Bump Bars - Configuration Included - (Monitor Not Included)\n\nNote: If any support or configuration is needed after initial configuration, a Windows OS Computer must be onsite and on the same LAN as Lavu. *Additional Configuration Fee will apply.",KDS,1420,2300
Epson KDS Additional Station Configuration Fee,Epson KDS Additional Station Configuration Fee,KDS,50,50
Epson KDS - 5 Station Bundle,"Epson KDS - 5 Station Bundle - Includes 1x Impact Printer, 5x Expansion Modules and 5x Bump Bars - Configuration Included - (Monitor Not Included)\n\nNote: If any support or configuration is needed after initial configuration, a Windows OS Computer must be onsite and on the same LAN as Lavu. *Additional Configuration Fee will apply.",KDS,2800,3400
9.7” Kiosk Bundle - No Printer  - White,"9.7” Kiosk Bundle - No Printer - Includes case, tablet, payment terminal, and necessary cables - White",Kiosk,1200,1550
9.7” Kiosk Bundle With Printer- Black,"Kiosk Bundle for 9.7"" iPad - Includes receipt printer, case, tablet, payment terminal, and necessary cables - Black",Kiosk,1400,1750
9.7” Kiosk Bundle - No Printer - Black,"9.7” Kiosk Bundle - No Printer - Includes case, tablet, payment terminal, and necessary cables - Black",Kiosk,1200,1550
2 Hour Menu Build,2 Hour Menu Build,Menu Build,74,149
1 Hour Menu Build,1 Hour Menu Build,Menu Build,37,79
4 Hour Menu Build,4 Hour Menu Build,Menu Build,147,299
Apple iPad Mini 4 - Wifi Only,Apple iPad Mini 4 Wi-Fi 128GB - Space Gray,mPOS Device,399,399
Apple iPod Touch 32GB,Apple iPod Touch 32GB Space Grey,mPOS Device,197,199
Apple iPad Mini 4 - Wifi + Cellular - Space Gray,Apple iPad Mini 4 Wi-Fi + Cellular 128GB - Space Gray\n,mPOS Device,529,529
AppleCare+ Protection Plan - iPad 9.7 and iPad Mini,AppleCare+ Protection Plan - iPad 9.7 and iPad Mini,mPOS Device,94,99
Socket 2D Barcode Scanner - Gray,"Socket Mobile Bluetooth 2D Barcode Scanner - Series 7 - Gray - Scanner, Batteries, and Charging Kit included \n\n",mPOS Device,375,429
"Apple iPad 9.7"" Wi-Fi 32GB - Space Gray","Apple iPad 9.7"" Wi-Fi 32 GB - Space Gray",mPOS Device,325,329
Ethernet Cable - 75ft,Ethernet Cable - 75ft - Black,Networking,18,40
Ethernet Cable - 100ft,Ethernet Cable - 100ft - Black,Networking,20,45
Ethernet Cable - 25ft,Ethernet Cable - 25ft - Black,Networking,12,30
Ethernet Cable - 50ft,Ethernet Cable - 50ft - Black,Networking,15,35
Ubiquiti ToughSwitch 8-Port Switch w/ POE Management,Ubiquiti ToughSwtich 8-Port w/ Power Over Ethernet Managed Switch,Networking,190,190
Ubiquiti Unifi Switch 16-port 150W w/ PoE,Ubiquiti Unifi Switch 16-port 150W,Networking,315,395
Lavu Certified Access Point AC Pro,"Lavu Certified Access Point AC Pro (Indoor/Outdoor, 2.4 GHZ Speed = 450 Mbps, 5 GHZ Speed = 1300 Mbps, PoE Mode = 802.3af PoE/802.3at PoE+, Ports = (2) 10/100/1000 Ethernet, Range = 122M (400ft)) (Does not include ethernet cable)",Networking,225,280
Apple Airport Extreme,Apple AirPort Extreme Base station with simultaneous dual-band 802.11ac Wi-Fi.,Networking,197,199
Ubiquiti EdgeRouter 5-Port Router w/ PoE,Lavu Certified & Pre-Configured Router - 5 Port Power Over Ethernet (Requires Access Point),Networking,255,325
Cisco 16 Port Gigabit Switch,Cisco 16 Port Gigabit Switch,Networking,199,199
Ubiquiti Unifi Switch 8-Port 60W w/ PoE,Ubiquiti 8-Port Managed Gigabit Switch - 4 PoE Ports,Networking,115,140
PoE Adapter,PoE (Power over Ethernet) Adapter - POE‑48‑24W‑G,Networking,25,30
Ethernet Cable - 10ft,Ethernet Cable - 10ft,Networking,10,25
Ubiquiti EdgeSwitch 5-Port Switch w/ PoE (24V ONLY),Lavu Certified & Pre-Configured Ubiquiti EdgeSwitch 5-Port w/ Power Over Ethernet Managed Switch,Networking,95,150
Ubiquiti Unifi Switch 24-Port 250W w/ PoE,Ubiquiti 24-Port 250W Managed Power Over Ethernet Switch w/ Small Form Factor Pluggable (SFP),Networking,420,520
Lavu Certified Access Point AC Lite,"Lavu Certified Access Point AC Lite (Indoor, 2.4 GHZ Speed = 300 Mbps, 5 GHZ Speed = 867 Mbps, PoE Mode = 24V Passive PoE, Ports = (1) 10/100/1000 Ethernet, Range = 122M (400ft)) - Does not include ethernet cord",Networking,160,200
Ethernet Cable - 7ft,Ethernet Cable - 7ft - Black,Networking,10,20
NetGear 8-Port Switch,NetGear 8-Port Unmanaged Switch w/ NO Power Over Ethernet,Networking,60,80
Lavu Cellular Modem - (Unlocked),Lavu Cellular Modem - (Unlocked) - LTE Sim card required and not included ,Networking,165,200
POS Terminal Hardwire Kit - Ethernet,POS Terminal Hardwire Kit - Ethernet\n*iDynamo not supported with this product,Networking,68,68
Specialist POS Training,Specialist POS Training,Other Services,0,0
Specialist POS Menu Setup,Specialist POS Menu Setup,Other Services,0,0
Lavu Loyalty App - Setup Fee,Lavu Loyalty App - Setup Fee,Other Services,500,1250
LavuPay MSR only - Setup Fee,LavuPay MSR only - Setup Fee,Other Services,0,100
BridgePay Setup Fee - Rush Setup,BridgePay Setup Fee - Rush Setup - (1 business day turn around).\n\nAll BridgePay accounts will incur a $.02 per transaction per month fee.\n\nNOTE: Setup timeline begins once VAR sheet is provided to Lavu.,Other Services,100,200
BridgePay Setup Fee - Standard Setup,BridgePay Setup Fee - Standard Setup - (1-2 business day turn around)\n\nAll BridgePay accounts will incur a $.02 per transaction per month fee\n\nNOTE: Setup timeline begins once VAR sheet is provided to Lavu. ,Other Services,55,100
Specialist POS Installation & Training,Specialist POS Installation & Training,Other Services,0,0
Specialist POS Implementation Services,Specialist POS Implementation Services,Other Services,0,0
Specialist POS Installation,Specialist POS Installation,Other Services,0,0
LavuPay w/ EMV - Setup Fee,LavuPay w/ EMV - Setup Fee,Other Services,0,100
Database Change Request,"Database Change Request - Includes: Menu Copies, Menu Restorations, Inventory Wipes, Database Restores, Refunds made via customer’s gateway/virtual terminal, etc",Other Services,50,150
Epson TM-T88V-i Printer,"Epson TM-T88V-i Thermal Printer (Ethernet Interface, 4 USB ports, Print speeds up to 300mm/sec, Paper-saving features reduce paper usage up to 30%). Includes 7ft. ethernet cable. ",Printer,300,560
Epson TM-T20ii Ethernet Printer - Grey,"Epson TM-T20ii Thermal Printer - Ethernet Interface, Print speeds up to 200mm/sec - Grey - Includes 7ft. ethernet cable. ",Printer,200,330
Power Supply for Epson Omnilink Intelligent Printers - T88V-i,Power Supply for Epson Omnilink Intelligent Printers - T88V-i,Printer,70,95
Star Micronics - TSP654 Thermal Printer - USB - Gray,Star Micronics - TSP654 Thermal Printer - USB - Gray,Printer,260,320
Epson TM-U220B Printer,"Epson TM-U220B Impact Printer (Ethernet Interface, Autocutter, Wall mountable with optional kit sold separately). Includes 7ft. ethernet cable. ",Printer,220,467
Star Micronics: TSP650 Swappable Interface Card - Ethernet,Star Micronics: TSP650 Swappable Interface Card - Ethernet,Printer,111,150
Power Supply for Epson TM Printers,Power Supply for Epson TM Printers (Not to be used with TM-T88V-i Intelligent Printer),Printer,34,45
Epson Wall Hanging Bracket,Epson Wall Hanging Bracket,Printer,40,50
"Epson TM-P80 3"" Mobile Receipt Printer","Epson TM-P80 3"" Mobile Receipt Printer - Black\n",Printer,430,530
"Epson TM-P20 2"" Mobile Receipt Printer","Epson TM-P20 2"" Mobile Receipt Printer - Black\n",Printer,325,398
Epson TM-M30 Printer White,"Epson TM-M30 Thermal Printer (Ethernet Interface, Front load or top load, Fits 3"" Receipt).Includes 7ft. ethernet cable. ",Printer,220,420
Epson TM-T88 Restick Thermal Restick Ethernet Printer,Printer - Epson TM-T88 Restick Thermal Restick Ethernet Printer. Includes 7ft. ethernet cable.,Printer,292,597
Epson TM-U220-i KDS Impact Printer - VGA,Epson TM-U220-i KDS Impact Printer - VGA Connection - Dark Grey. Includes 7ft. ethernet cable. ,Printer,494,931
Star Micronics - TSP654IIE3-24 Thermal Printer - Ethernet - White,Star Micronics - TSP654IIE3-24 Thermal Printer - Ethernet - White ,Printer,300,595
Star Micronics: SP742 Ethernet - Kitchen Ticket Printer - Gray,Star Micronics: SP742 Ethernet - Kitchen Ticket Printer - Gray,Printer,240,295
Epson TM-T88VI (6) Thermal Receipt Printer - Ethernet,Epson TM-T88VI (6) Thermal Printer - Ethernet Interface - Black. Includes 7ft. ethernet cable. ,Printer,260,380
Star Micronics - TSP654II Thermal Printer - Ethernet - Gray,Star Micronics - TSP654II Thermal Printer - Ethernet - Gray,Printer,300,595
"Epson TM-P60II 2"" Mobile Receipt Printer","Epson TM-P60II 2"" Mobile Receipt Printer - Black\n",Printer,425,525
Epson TM-T20ii Wifi Printer - Color: Black,"Epson TM-T20ii Thermal Printer - Wifi Interface, Print speeds up to 200mm/sec - Color: Black\n\n",Printer,275,330
External Buzzer compatible with Epson printers,External Buzzer compatible with Epson printers,Printer,16,20
Epson TM-M30 Printer Black,"Epson TM-M30 Thermal Printer (Ethernet Interface, Front load or top load, Fits 3"" Receipt).Includes 7ft. ethernet cable. ",Printer,220,350
Interface Card - Ethernet Interface Card for all Epson TM Printer Models,Interface Card - Ethernet Interface Card for all Epson TM Printer Models,Printer,82,132
Soft Case for Epson TM-P20,"Epson Accessory - Soft Case for Epson TM-P20 2"" Mobile Receipt Printer \n",Printer,50,55
RFID Reader - USB,RFID Reader - USB,RFID,149,185
RFID Key Fob - 10 Pack,RFID Key Fob - 10 Pack,RFID,44,60
RFID Cards - 10 Pack,RFID Cards - 10 Pack,RFID,23,45
Retractable RFID Reel - 10 Pack,Retractable RFID Reel - 10 Pack,RFID,7,20
Lavu Accounting Integration - Quickbooks & Xero - Monthly,Lavu Accounting Integration - Quickbooks & Xero - Monthly,SaaS,30,30
Lavu Loyalty - Annual Subscription,Lavu Loyalty - Annual Subscription,SaaS,249,249
Lavu Loyalty & Gift - Annual Subscription,Lavu Loyalty & Gift - Annual Subscription,SaaS,399,399
Lavu POS Hosting,Lavu POS Hosting Packages,SaaS,79,79
Lavu Loyalty & Gift - Monthly Subscription,Lavu Loyalty & Gift Package - Monthly Subscription,SaaS,40,40
Monthly Hosting - Additional Terminal,Additional terminal price for terminals beyond the 4th.,SaaS,20,20
Lavu Loyalty - Monthly Subscription,Lavu Loyalty - Monthly Subscription,SaaS,25,25
Monthly KDS 2.0 Hosting - Per Device,Monthly KDS 2.0 Hosting - Per Device,SaaS,20,20
Lavu Integrated Payments - Monthly Fee,Lavu Integrated Payments - Monthly Fee,SaaS,15,30
Lavu Loyalty App - Annual Subscription,Lavu Loyalty App - Annual Subscription,SaaS,1800,1800
Lavu Loyalty App - Monthly Subscription,Lavu Loyalty App - Monthly Subscription - No Setup Fee,SaaS,150,150
Lavu Gift - Monthly Subscription,Lavu Gift - Monthly Subscription,SaaS,25,25
Lavu Accounting Integration - Quickbooks & Xero - Annual,Lavu Accounting Integration - Quickbooks & Xero - Annual\n,SaaS,300,300
Annual KDS 2.0 Hosting - Per Device,Annual KDS 2.0 Hosting - Per Device,SaaS,199,199
Lavu Gift - Annual Subscription,Lavu Gift - Annual Subscription,SaaS,249,249
Lavu Loyalty App - Setup Fee,Lavu Loyalty App - Setup Fee,SaaS,500,1250
Lavu Integrated Payments - Annual Fee,Lavu Integrated Payments - Annual Fee\n,SaaS,175,310
Lavu Accounting Integration - Quickbooks & Xero - 6 Months,Lavu Accounting Integration - Quickbooks & Xero - 6 Months,SaaS,180,180
FoodBAM,"Order, Save, Receive, Recipe Costing, Inventory - FREE IF YOU DON'T SAVE AT LEAST WHAT YOU PAY IN FOOD REBATES.",SaaS,100,100
Portion Control Scale,"Portion Control Scale - Bluetooth Adapter, Power Cable and Wall Plug included",Scale,214,250
Expedited Shipping - 2nd Day Standard,Expedited Shipping - 2nd Day Standard,Shipping,0,0
Expedited Shipping - Overnight Standard,Expedited Shipping - Overnight Standard,Shipping,0,0
Expedited Shipping - 3Day Select,Expedited Shipping - 3Day Select,Shipping,0,0
Ground Shipping,Ground  Shipping,Shipping,0,0
International Saver (3-5 Days),International Saver (3-5 Days),Shipping,0,0
Expedited Shipping - Overnight Early AM,Expedited Shipping - Overnight Early AM,Shipping,0,0
Expedited Shipping - Overnight Saturday,Expedited Shipping - Overnight Saturday,Shipping,0,0
International Worldwide Express,International Worldwide Express,Shipping,0,0
International Shipping - UPS Worldwide Expedited,International Shipping - UPS Worldwide Expedited,Shipping,0,0
International Shipping - UPS Worldwide Standard,International Shipping - UPS Worldwide Standard,Shipping,0,0
Expedited Shipping - 2nd Day AM,Expedited Shipping - 2nd Day AM,Shipping,0,0
Expedited Shipping - 2nd day saturday,Expedited Shipping - 2nd day saturday,Shipping,0,0
Vault Pro Series - Brackets for iDynamo - Black,Vault Pro Series - Bracket compatible with Magtek iDynamo Card Reader - Compatible with 9.7 and 12.9 Pro Series Cases - Black,Stands,41,43
Vault - Hand Strap for Pro Series Case - Black,Vault - Hand Strap for Pro Series Cases - Black,Stands,19,20
"Vault Pro Series - Wall Mount Bracket - Full Motion Tilt & Swivel, Vesa - Black","Vault Pro Series - Wall Mount Bracket - Full Motion Tilt & Swivel, Vesa - Black\n",Stands,25,28
Vault Simplicity Series - Brackets NOCC - iPad Mini 1/2/3 - Black,Vault Simplicity Series - Brackets compatible with iPad Mini 1/2/3 - NO Credit Card Reader compatibility- Black - Base Sold Separately,Stands,58,58
Vault Rotation Base - Black,Vault Simplicity - Rotation Base - Black - Compatible with Vault Pro Series and Vault Simplicity Series ,Stands,25,40
Heavy Duty 360 Rotation Armor Case - iPad Mini 4 - Black,Heavy Duty 360 Dual Protective Back Cover Rugged Case with Kickstand and Leather Hand Strap for iPad Mini 4 - Black,Stands,20,25
Vault Pro Series - Bracket for USB Reader - iPad 9.7 and 12.9 - Black,"Vault Pro Series - Bracket for USB Credit Card Reader - Black *Compatible for Bridgepay, Vantiv and Heartland USB Readers\n",Stands,34,40
Windfall Checkout Stand - iPad 12.9 - Black Grey,Heckler WindFall Checkout Stand compatible with Apple iPad Pro 12.9″  - Optional iDynamo Bracket Included - Black Grey\n\n,Stands,120,145
Vault Pro Series - Case - iPad 9.7 - Black,Vault Pro Series - Case compatible with iPad Air 1/Air 2 and 9.7 - Black - Base and Brackets Sold Separately,Stands,105,166
Vault Simplicity - Base - 9.7 iPad - Black,Vault Simplicity Series - Base compatible with iPad Air 1/Air 2 and 9.7 - Black - Brackets Sold Separately,Stands,71,100
Vault Simplicity Series - Brackets for iDynamo - iPad 9.7 - Black,Vault Simplicity Series - Brackets compatible with iPad Air 1/Air 2 and iDynamo Credit Card Reader - Black - BASE SOLD SEPARATELY,Stands,82,100
Vault Simplicity Series - Brackets w/ NOCC - iPad 9.7- White,Vault Simplicity Series - Brackets compatible with iPad Air 1/Air 2 - NO Credit Card Reader compatibility - White - Base Sold Separately,Stands,71,100
Vault Simplicity Series - Brackets for USB - iPad 9.7- Black,Vault Simplicity Series - Brackets compatible with iPad Air 1/Air 2 and Heartland USB Reader - Black - Base Sold Separately,Stands,83,102
Vault Simplicity Series - Base - iPad Mini 1/2/3 - White,Vault Simplicity Series - Base compatible with iPad Mini 1/2/3 - White - Brackets Sold Separately,Stands,58,58
"Vault Pro Series - iPad 9.7 Bundle - Case, Stability Base and USB bracket - Black","Vault Pro Series - iPad 9.7 Bundle - Includes Case, Stability Base and USB bracket - Black",Stands,210,269
iPod Touch 6th Generation Case,iPod Touch 6th Generation Case (Not compatible with iDynamo) ,Stands,10,15
"Windfall Checkout Stand - Mini 1, 2, 3, 4 - Black Grey","Heckler WindFall Checkout Stand compatible with Apple iPad Mini 1, 2 , 3, 4 - Color: Black Grey - Optional iDynamo 5 Support Included\n",Stands,95,115
Pad Grip Magnetic Combo X Long,Pad Grip Magnetic Combo X Long,Stands,75,99
Screws for Simplicity,Vault Simplicity - Screws for Simplicity - Pack of 20\n,Stands,15,15
iPod Touch 6th Generation Case with VClip,iPod Touch 6th Generation Case with VClip for Paypal EMV compatibility (Miura reader only),Stands,42,55
Vault Pro Series - Brackets for iDynamo - iPad 9.7 and 12.9 - White,Vault Pro Series - Bracket compatible with Magtek iDynamo Card Reader - White,Stands,41,43
Vault Simplicity Series - Base and Brackets for iDynamo - iPad Mini 1/2/3 - Black,Vault Simplicity Series - Base and Brackets compatible with iPad Mini 1/2/3 and iDynamo Credit Card Reader - Black,Stands,107,115
Vault Simplicity Bundle - Base and Brackets for USB - iPad 9.7 - Black,Vault Simplicity Bundle - Base and Brackets compatible with iPad Air 1/Air 2 and USB Card Reader - Black with Lavu Logo,Stands,160,203
"Vault Pro Series - Pole Mount - 9""","Vault Pole Mount - 9""",Stands,121,145
Vault Simplicity Series - Base and iDynamo Brackets - iPad Mini 4 - Black,Vault Simplicity Series - Base and Brackets compatible with iPad Mini 4 and iDynamo Credit Card Reader - Black,Stands,120,175
Vault Rear Customer Display - iPad Mini 4,Vault Rear Customer Display - iPad Mini 4 - Black - Compatible with Vault Simplicity line and Vault Pro line\n,Stands,57,85
Pad Grip iPad Stand - Magnetic Combo - iPad Air 1/New iPad 9.7,Pad Grip iPad Stand - Magnetic Combo - iPad Air 1/New iPad 9.7,Stands,70,99
Windfall Checkout Stand - iPad 9.7 - Black Grey,"Heckler WindFall Checkout Stand compatible with Apple iPad Air 1, iPad Air 2, iPad Pro 9.7-inch, iPad (5th Gen) - Color: Black Grey - Optional iDynamo Bracket Included\n",Stands,95,119
Vault Simplicity Bundle - Base and Brackets w/ NOCC - iPad 9.7 - White,Vault Simplicity Bundle - Base and Brackets compatible with iPad Air 1/Air 2 - NO Credit Card Reader compatiblity - White with Lavu Logo,Stands,160,203
Heavy Duty 360 Rotation Armor Case - iPad 9.7 - Blue,Heavy Duty 360 Dual Protective Back Cover Rugged Case with Kickstand and Leather Hand Strap for iPad 9.7 - Blue,Stands,32,40
Vault Connect - Case with iDynamo Bracket and Handstrap - iPad Mini4 - Black,Vault Connect - Case with iDynamo Bracket and Handstrap - iPad Mini4 - Black,Stands,125,145
Vault Pro Series - Stability Base - Black,Vault - Stability Base for Pro Series Cases - Black,Stands,39,48
Vault Simplicity Series - Brackets for iDynamo - iPad 9.7 - White,Vault Simplicity Series - Brackets compatible with iPad Air 1/Air 2 and iDynamo Credit Card Reader - White - Base Sold Separately,Stands,83,100
Vault Simplicity Series - Base and iDynamo Brackets - iPad Mini 1 / 2 / 3 - Black,"Vault Simplicity Series - Base compatible with iPad Mini 1,2,3 - Black - Brackets Sold Separately",Stands,60,75
Vault Simplicity - Base - 9.7 iPad - White,Vault Simplicity Series - Base compatible with iPad Air 1/Air 2 - White - Brackets Sold Separately,Stands,86,100
Vault Simplicity Series - Brackets w/ NOCC - iPad 9.7- Black,Vault Simplicity Series - Brackets compatible with iPad Air 1/Air 2 - NO Credit Card Reader compatibility - Black - Base Sold Separately,Stands,83,100
Vault Simplicity Bundle - Base and Brackets for iDynamo - iPad 9.7 - Black,"Vault Simplicity Bundle - Base and Brackets compatible with iPad Air 1/Air 2, iPad 9.7 and iDynamo Credit Card Reader - Black with Lavu Logo",Stands,160,203
Vault Simplicity Bundle - Base and Brackets w/ NOCC - iPad 9.7 - Black,Vault Simplicity Bundle - Base and Brackets compatible with iPad Air 1/Air 2 - NO Credit Card Reader compatiblity - Black with Lavu Logo,Stands,160,203
Vault Pro Series - Case - iPad 9.7 - White,Vault Pro Series - Case compatible with iPad Air 1/Air 2 - White - Base and Brackets Sold Separately,Stands,132,166
Vault Pro Series - Flip Base - Black,Vault - Flip Base for Pro Series Cases - Black,Stands,76,89
"Vault Pro Series - Wall Mount Bracket Arm - Full Motion Tilt & Swivel, Vesa - Black","Vault Pro Series - Wall Mount Extended Bracket Arm - Full Motion Tilt & Swivel, Vesa - Black ",Stands,39,39
"Vault Rear Customer Display - iPad Mini 1,2,3","Vault Rear Customer Display - iPad Mini 1,2,3 - Black - Compatible with Vault Simplicity line and Vault Pro line",Stands,57,85
Vault Pro Series - Stability Base - White,Vault Stability Base Only - White,Stands,48,48
"Vault Pro Series - iPad Pro 12.9 Bundle - Case, Stability Base and iDynamo Bracket - Black","Vault Pro Series - iPad Pro 12.9 Bundle - Includes Case, Stability Base and iDynamo bracket - Black",Stands,240,315
"Vault Pro Series - Pole Mount - 6""","Vault Pole Mount - 6""",Stands,121,145
"Vault Pro Series - Pole Mount - 12""","Vault Pole Mount - 12""",Stands,121,145
Windfall iPad Mini Stand - Black,"WindFall Stand compatible with Apple iPad Mini 1,2,3,4 - Color: Black",Stands,70,99
Vault Simplicity Series - Brackets for iDynamo - iPad Mini 1 / 2 / 3 - Black,Vault Simplicity Series - Brackets compatible with iPad Mini 1/2/3 and iDynamo Credit Card Reader - Black - Base Sold Separately,Stands,58,58
Heavy Duty 360 Rotation Armor Case - iPad 9.7 - Black,Heavy Duty 360 Dual Protective Back Cover Rugged Case with Kickstand and Leather Hand Strap for iPad 9.7 - Black,Stands,32,40
"Vault Pro Series - iPad 9.7 Bundle - Case, Stability Base and iDynamo bracket - Black","Vault Pro Series - iPad 9.7 Bundle - Includes Case, Stability Base and iDynamo bracket - Black",Stands,210,269
Vault Simplicity Series - Base and NOCC Brackets - iPad Mini 4 - Black,Vault Simplicity Series - Base and Brackets compatible with iPad Mini 4 - No Credit Card Support - Black,Stands,125,175
Windfall PivotTable,Windfall PivotTable,Stands,20,20
"Windfall Checkout Stand - Mini 1, 2, 3, 4 - Grey White","Heckler WindFall Checkout Stand compatible with Apple iPad Mini 1, 2 , 3, 4 - Color: Grey White - Optional iDynamo 5 Support included\n",Stands,95,115
Windfall Checkout Stand - iPad 9.7 with USB Bracket - Black Grey,"Heckler WindFall Checkout Stand compatible with Apple iPad Air 1, iPad Air 2, iPad Pro 9.7-inch, iPad (5th Gen) and IDTech USB Reader (Not Compatible with Heartland USB Reader) - Color: Black Grey - Optional iDynamo Bracket Included\n",Stands,109,148
"Vault Connect - Case with iDynamo Bracket and Handstrap - iPad Air, Air 2, 9.7 - Black","Vault Connect - Case with iDynamo Bracket and Handstrap - iPad Air, Air 2, 9.7 - Black",Stands,130,160
Lavu Remote Training (4 Hours) - Up to 4 People,Lavu Remote Training (4 Hours) - Up to 4 People,Training,147,299
Lavu Remote Onboarding Service (2 Hours) - Up to 4 People,Lavu Remote On-boarding Service (2 Hours) - Up to 4 People,Training,74,199
Lavu Remote Onboarding Service (1 Hour) - Up to 4 People,Lavu Remote Onboarding Service (1 Hour) - Up to 4 People,Training,75,119
Lavu Remote Training (8 Hours) - Up to 4 People,Lavu Remote Training (8 Hours) - Up to 4 People,Training,294,499
Lavu Remote Onboarding Service (8 Hours) - Up to 4 People,Lavu Remote On-boarding Service (8 Hours) - Up to 4 People,Training,294,499
Lavu Remote Training (2 Hours) - Up to 4 People,Lavu Remote Training (2 Hours) - Up to 4 People,Training,74,199
Lavu Remote Onboarding Service (4 Hours) - Up to 4 People,Lavu Remote On-boarding Service (4 Hours) - Up to 4 People\n,Training,147,299
Lavu Kiosk Hosting ,Lavu Kiosk Hosting,SaaS,100,100
Lavu To Go - Online Ordering - Monthly,Lavu To Go - Online Ordering - Monthly,SaaS,75,75
Lavu Loyalty App Beacons - Pack of 3,Lavu Loyalty App Beacons - Pack of 3\n,Networking,75,99