Product: Name,Product: Description,Product: Product Category Type,Reseller Cost,MSRP
Miura EMV Card Reader - PayPal,PayPal EMV Chip Card Reader,Card Readers,0,150
Card Reader Cleaning Card - Pack of 10,Card Reader Cleaning Card - Pack of 10,Card Readers,15,20
Dock for Square Reader,Dock for Square Reader,Card Readers,29,29
Square Chip Reader,Square Chip Reader,Card Readers,29,29
Charging Stand for PayPal Chip and Tap Reader,Charging Stand for PayPal Chip and Tap Reader\n\n,Card Readers,29.99,29.99
PayPal - VClip,PayPal - VClip,Card Readers,30,40
Credit Card Imprinter with 100 Sales Slips,Credit Card Imprinter with 100 Sales Slips,Card Readers,40,50
Dejavoo Power Supply,Dejavoo Power Supply - Compatible with Z9 and Z11,Card Readers,40,45
 Square Contactless and Chip Reader,Square Contactless and Chip Reader,Card Readers,49,49
PayPal - Stand for Chip Card Reader,PayPal - Stand for Miura Chip Card Reader,Card Readers,55,69
PayPal Chip and Tap Reader,PayPal Chip and Tap Reader - Stand Not Included (LAVU KIOSK ONLY)\n\n,Card Readers,59.99,59.99
PAX S300 Swivel and Tilt Stand,PAX S300 Swivel and Tilt Stand,Card Readers,70,85
Universal EMV Stand - Fixed,"Universal EMV Stand - 2.75"" FIXED/TILT Stand ",Card Readers,70,85
PayPal Chip and Tap Bundle,PayPal Chip and Tap Bundle - Includes Reader and Charging Stand (LAVU KIOSK ONLY)\n\n,Card Readers,79.99,79.99
USB Reader w/ Heartland,USB Card Readers - Heartland encryption - REQUIRED: Epson TM-88vi,Card Readers,98,150
IDTECH USB Reader w/ Bridgepay,USB Card Reader - Bridgepay encryption - REQUIRED: Epson TM-T88vi,Card Readers,100,150
IDTECH USB Reader w/ Vantiv,USB Card Reader - Vantiv encryption - REQUIRED: Epson TM-T88vi,Card Readers,100,150
Magtek iDynamo 5 with Paypal encryption,iDynamo 5 Card Reader - Lightning Connector - Includes iDynamo charging cable,Card Readers,100,125
Magtek iDynamo 5 with BridgePay encryption,iDynamo 5 Card Reader - Lightning Connector - Includes iDynamo charging cable,Card Readers,110,140
Magtek iDynamo - LavuPay encryption,iDynamo 5 Card Reader - Lightning Connector - Includes iDynamo charging cable,Card Readers,110,140
Magtek iDynamo 5 with USAePay encryption,iDynamo 5 Card Reader - Lightning Connector - Includes iDynamo charging cable,Card Readers,110,140
Magtek iDynamo 5 with MerchantWARE/Cayan encryption,iDynamo 5 Card Reader - Lightning Connector - Includes iDynamo charging cable,Card Readers,110,140
Socket 1D/2D Barcode Charging Stand,Socket 1D/2D Barcode Charging Stand - Series 7\n\n,Card Readers,120,129
Magtek iDynamo 5 with Vantiv encryption,iDynamo 5 Card Reader - Lightning Connector - Includes iDynamo charging cable,Card Readers,130,155
PAX S80 Countertop Payment Terminal,PAX S80 Countertop Payment Terminal,Card Readers,136.5,160
PAX S300 Credit Card Terminal,PAX S300 Credit Card Terminal,Card Readers,199,(blank)
Socket 1D Barcode Scanner - BLUE,"Socket Mobile Bluetooth 1D Barcode Scanner - Series 7 - BLUE - Scanner, Batteries, and Charging Kit included \n\n",Card Readers,205,229
Dejavoo Z11,Dejavoo Z11,Card Readers,225,258
Blue Bamboo: Bluetooth Printer w/ Card Reader for iOS,Blue Bamboo: Bluetooth Printer w/ Card Reader for iOS,Card Readers,282,365
INGENICO iPP320 - BOLT Reader - Standard,INGENICO iPP320 - BOLT Reader - Standard Shipping,Card Readers,325,350
Dejavoo Z9 - WIFI,Dejavoo Z9 - WIFI,Card Readers,375,390
Pax D210 Mobile Payment Terminal,Pax D210 Mobile Payment Terminal,Card Readers,385,395
Lightning to USB Charging Cable - 10ft Black,Lightning to USB Charging Cable - 10ft Black,Card Readers and Cables,8,20
Heavy Duty 90 Degree Micro SD Cord - Left,"6' USB Cable, Heavy Duty, 90 Degree",Card Readers and Cables,10,15
Heavy Duty 90 Degree Micro SD Cord - Right,"6' USB Cable, Heavy Duty, 90 Degree",Card Readers and Cables,10,15
iDynamo Charging Cable,iDynamo Charging Cable - USB A Male to Micro 5pin Male - 6Fft - Black,Card Readers and Cables,10,20
4 Bill 4 Coin Cash Drawer with Black Front,APG Cash Drawer with 4 Bill 4 Coin Till - Black Front - Single Media Slot - Size: 13.1in x 13.1in x 3.93in; Cash Drawer Cable Included for Auto-Open,Cash Drawer,95,230
5 Bill 5 Coin Cash Drawer with Black Front - Manual Open Only,APG Cash Drawer with 5 Bill 5 Coin Till - Black Front - Dual Media Slots - Size: 16.2in X 16.3in x 4.3in ; Manual Open Only,Cash Drawer,98,182
5 Bill 5 Coin Cash Drawer with Stainless Steel Front,APG Cash Drawer with 5 Bill 5 Coin Till - Stainless Steel Front - Dual Media Slots - Size: 16.2in x 16.3in x 4.3in; Cash Drawer Cable Included for Auto-Open,Cash Drawer,100,260
5 Bill 5 Coin Cash Drawer - All White,APG Cash Drawer with 5 Bill 5 Coin Till - All White - Dual Media Slots - Size: 16.2in X 16.3in x 4.3in ; Cash Drawer Cable Included for Auto-Open,Cash Drawer,108,180
5 Bill 5 Coin Cash Drawer with Black Front,APG Cash Drawer with 5 Bill 5 Coin Till - Black Front - Dual Media Slots - Size: 16.2in X 16.3in x 4.3in ; Cash Drawer Cable Included for Auto-Open,Cash Drawer,110,180
5 Bill 5 Coin Heavy Duty Cash Drawer with Black Front,APG Heavy Duty Cash Drawer with 5 Bill 5 Coin Till - Black Front - Dual Media Slots - Size: 6.0in x 16.8in x 4.9in; Cash Drawer Cable REQUIRED for auto-open,Cash Drawer,136,270
Dual Cash Drawer Bundle - 5 Bill 5 Coin - Black Front,"Dual Cash Drawer Bundle - Contains 2x APG Cash Drawer, 2x Cable, and 1x Splitter",Cash Drawer,210,260
Dual Cash Drawer Bundle - 4 Bill 4 Coin - Black Front,"Dual Cash Drawer Bundle - Contains 2x APG Cash Drawer, 2x Cable, and 1x Splitter",Cash Drawer,215,275
Dual Cash Drawer Bundle - 5 Bill 5 Coin - Stainless Steel Front,"Dual Cash Drawer Bundle - Contains 2x APG Cash Drawer, 2x Cable, and 1x Splitter",Cash Drawer,240,290
WindFall Automatic Cash Drawer - Black Grey,WindFall Automatic Cash Drawer - Black Grey,Cash Drawer,295,399
WindFall Automatic Cash Drawer - Grey White,WindFall Automatic Cash Drawer - Grey White,Cash Drawer,295,399
Windfall Standard Till Set for Windfall Cash Drawer,Windfall Standard Till Set for Windfall Cash Drawer - Additional Till Set for WindFall Cash Drawer,Cash Drawer and Accessory,0,25
Spare Key Set for Cash Drawer - Code 243,APG Cash Drawer Key Set for Vasario Series - Includes 2 Keys - Key Code: 243,Cash Drawer and Accessory,6,25
Spare Key Set for Cash Drawer - Code 435,APG Cash Drawer Key Set for Vasario Series - Includes 2 Keys - Key Code: 435,Cash Drawer and Accessory,6,25
Spare Key Set for Cash Drawer - Code 542,APG Cash Drawer Key Set for Vasario Series - Includes 2 Keys - Key Code: 542,Cash Drawer and Accessory,6,25
Cash Drawer Cable,APG Cash Drawer Interface Cable for 24V Cash Drawers - Connection Type: RJ12 to RJ45,Cash Drawer and Accessory,12,20
Spare Key Set for Cash Drawer - Code 235,APG Cash Drawer Key Set for Vasario Series - Includes 2 Keys - Key Code: 235,Cash Drawer and Accessory,14,25
Till for 4 Bill 4 Coin Cash Drawer,APG Cash Drawer Till for 4 Bill 4 Coin Cash Drawer,Cash Drawer and Accessory,17,35
Locking Till Cover for 5 Bill 5 Coin Cash Drawer,APG Cash Drawer Locking Till Cover for 5 Bill 5 Coin Till,Cash Drawer and Accessory,18,37
Till for 5 Bill 5 Coin Cash Drawer,APG Cash Drawer Till for 5 Bill 5 Coin Cash Drawer,Cash Drawer and Accessory,19,50
Cash Drawer Cable - 10 FEET,APG Cash Drawer Interface Cable (10 FEET) for 24V Cash Drawers - Connection Type: RJ12 to RJ45,Cash Drawer and Accessory,20,25
Spare Lock & Key Set for Cash Drawer - Code 235,APG Cash Drawer Lock & Key Set for Vasario Series - Includes 2 Keys - Key Code: 235,Cash Drawer and Accessory,23,35
Spare Lock & Key Set for Cash Drawer - Code 243,APG Cash Drawer Lock & Key Set for Vasario Series - Includes 2 Keys - Key Code: 243,Cash Drawer and Accessory,23,35
Spare Lock & Key Set for Cash Drawer - Code 435,APG Cash Drawer Lock & Key Set for Vasario Series - Includes 2 Keys - Key Code: 435,Cash Drawer and Accessory,23,35
Spare Lock & Key Set for Cash Drawer - Code 542,APG Cash Drawer Lock & Key Set for Vasario Series - Includes 2 Keys - Key Code: 542,Cash Drawer and Accessory,23,35
Coin Cups,Coin Cups for 5 Bill/5 Coin Till,Cash Drawer and Accessory,26,48
Cash Drawer Under Counter Mounting Brackets - 4 Bill 4 Coin,Cash Drawer Under Counter Mounting Brackets - 4 Bill 4 Coin,Cash Drawer and Accessory,27,45
Cash Drawer Under Counter Mounting Brackets - 5 Bill/5 Coin and 4 Bill/5 Coin Drawers,Cash Drawer Under Counter Mounting Brackets - Compatible with 5 Bill/5 Coin and 4 Bill/5 Coin Drawers,Cash Drawer and Accessory,27,45
Till for APG 1416 Series - European,APG Cash Drawer Till for APG 1416 Series - Adjustable 4x8 Till with Removable Coin Tray - Made for some European Currency\n,Cash Drawer and Accessory,27,50
Locking Till Cover for 4 Bill 4 Coin Cash Drawer,Locking Till for 4 Bill 4 Coin Cash Drawer,Cash Drawer and Accessory,30,37
Apple iPad 12W USB Power Adapter,iPad and iPod Accessories,Computer and Accessory,19,19
Apple iPod 5W USB Power Adapter,iPad and iPod Accessories,Computer and Accessory,19,19
Lightning to USB Cable - 1 meter,iPad and iPod Accessories,Computer and Accessory,19,19
Kensington Combination Cable Lock,Kensington Combination Cable Lock,Computer and Accessory,25,30
Lightning to USB Cable - 2 meter,iPad and iPod Accessories,Computer and Accessory,29,29
Apple Magic Mouse,Apple Magic Mouse,Computer and Accessory,79,79
Apple Magic Keyboard,Apple Magic Keyboard,Computer and Accessory,99,99
Battery Backup - 210W,Battery Backup,Computer and Accessory,100,125
Battery Backup - 300W,Battery Backup,Computer and Accessory,125,150
"Brother Label Roll - 1.1"" x 50'","Brother Continuous Length Film Label Roll -1.1"" x 50' continuous label roll",Consumables,33,40
"Brother Label Roll - 2.4"" x 50'","Brother Continuous Length Film Label Roll - 2.4"" x 50' continuous label roll\n ",Consumables,52,65
Sales Slips (100/ea),Credit Card Imprinter Sales Slips (100/ea),Consumables,15,25
Blue Bamboo Thermal Receipt Paper - Case of 12,"Paper, Ribbon, Recurring Paper Subscriptions",Consumables,25,25
Ribbon for Epson Impact Printer - Case of 10 Ribbon,"Paper, Ribbon, Recurring Paper Subscriptions",Consumables,25,30
"Receipt Paper - Case of 36 rolls - Compatible w/Epson TM-P20, Pax D210, Dejavoo Z1 and Dejavoo Z9","Paper, Ribbon, Recurring Paper Subscriptions",Consumables,30,35
"Receipt Paper -Case of 36 rolls -Compatible w/Epson TM-P20, Pax D210, Dejavoo Z1 and Dejavoo Z9","Paper, Ribbon, Recurring Paper Subscriptions",Consumables,30,35
Ribbon for Star Micronics Impact Printer - Case of 10 Ribbon,Ribbon - Star Micronics Impact Printers - Black/Red - Case of 10 Ribbon\n,Consumables,40,45
1Ply Impact Paper - Case of 50 Rolls,"Paper, Ribbon, Recurring Paper Subscriptions",Consumables,45,60
2Ply Impact Paper - Case of 50 Rolls,"Paper, Ribbon, Recurring Paper Subscriptions",Consumables,45,80
Quarterly Subscription - Ribbon for Epson Impact Printer - Case of 10 Ribbon,"Paper, Ribbon, Recurring Paper Subscriptions",Consumables,50,50
"Receipt Paper - Case of 50 rolls- Compatible w/ Epson TM-P60ii, Pax S80, Dejavoo Z8 and Dejavoo Z11","Paper, Ribbon, Recurring Paper Subscriptions",Consumables,50,60
Receipt Paper - Case of 72 rolls - Compatible w/ Epson TM-P80,"Paper, Ribbon, Recurring Paper Subscriptions",Consumables,65,80
Quarterly Subscription - 2-Ply Impact Paper - Case of 50 Rolls,"Paper, Ribbon, Recurring Paper Subscriptions",Consumables,75,75
3Ply Impact Paper - Case of 50 Rolls,"Paper, Ribbon, Recurring Paper Subscriptions",Consumables,85,100
Quarterly Subscription - 1Ply Impact Paper - Case of 50 Rolls,"Paper, Ribbon, Recurring Paper Subscriptions",Consumables,85,85
Thermal Receipt Paper - Case of 50 Rolls,"Paper, Ribbon, Recurring Paper Subscriptions",Consumables,85,100
Monthly Subscription - 3Ply Impact Paper - Case of 50 Rolls,"Paper, Ribbon, Recurring Paper Subscriptions",Consumables,100,120
Monthly Subscription - Thermal Receipt Paper - Case of 50 Rolls,"Paper, Ribbon, Recurring Paper Subscriptions",Consumables,100,100
Quarterly Subscription - Thermal Receipt Paper - Case of 50 Rolls,"Paper, Ribbon, Recurring Paper Subscriptions",Consumables,100,100
Adhesive Sticky Paper - Direct Thermal,"Paper, Ribbon, Recurring Paper Subscriptions",Consumables,250,295
Monthly Subscription - Adhesive Sticky Paper,"Paper, Ribbon, Recurring Paper Subscriptions",Consumables,250,295
Monthly Subscription - Adhesive Sticky Paper,"Paper, Ribbon, Recurring Paper Subscriptions",Consumables,288,288
Lavu Integrated Payments Onboarding,Lavu Integrated Payments Onboarding,Deployment,0,500
Lavu Integrated Payments - Terminal Setup,Lavu Integrated Payments - Terminal Setup,Deployment,35,79
Networking Configuration,Networking Configuration Fee,Deployment,37,99
Lavu Loyalty App - Setup Fee,Lavu Loyalty App - Setup Fee,Deployment,500,1250
Digital Signage Installation - Custom,Digital Signage Installation - Custom,Digital Menu Board,0,0
Decorative Trim Ring for Outer Adjustable Column,Decorative finishing trim ring for the outside of adjustable extension column,Digital Menu Board,20,25
Lavu Menu Board/Signage - Monthly Subscription,Lavu Menu Board/Signage - Monthly Subscription,Digital Menu Board,25,25
Offset Unistrut Adapter supports (500lb capacity),"Makes installation to all styles of 1.63"" Unistrut/U-Channel. Ships with spring nuts and bolts for attaching to Unistrut®/U-Channel.",Digital Menu Board,46,60
3-5' Adjustable Extension Column,"Height Adjustment in 1"" increments, adjustment without disassembly, 1.5"" NPT column, threaded on both ends",Digital Menu Board,115,150
Medium Tilt Wall Mount - Portrait,"43-65"" tilt wall mount - Portrait",Digital Menu Board,115,145
Small Tilt Wall Mount - Single Stud Mount - Portrait,"24-32"" tilt wall mount - Single Stud Mount - Portrait",Digital Menu Board,120,155
Medium Tilt Wall Mount - Landscape,"32-47"" tilt wall mount - Landscape",Digital Menu Board,130,145
"Digital Signage Installation - Up To 43""","Digital Signage Installation Up To 43"" Monitor - Wall mounted up to 8ft, measured from floor to center of panel & up to 150ft of network cabling",Digital Menu Board,185,240
Large Tilt Wall Mount - Landscape,"37-65"" tilt wall mount - Landscape",Digital Menu Board,195,225
Digital Signage Media Player,Digital Signage Media Player - HDMI - LAN (Preferred) or WLAN,Digital Menu Board,210,245
Digital Menu Design Package 1,"Digital Menu Design Package 1 - Includes:\n\n1 ea wire frame, 2 design concepts (1 revision), inputting of menu items, nutritionals, descriptions (1 revision), develop one playlist schedule (1 revision)",Digital Menu Board,265,375
"Digital Signage Installation - 44-70""","Digital Signage Installation 44-70"" Monitor - Wall mounted up to 8ft, measured from floor to center of panel & up to 150ft of network cabling",Digital Menu Board,290,350
Lavu Menu Board/Signage - Annual Subscription,Lavu Menu Board/Signage - Annual Subscription\n,Digital Menu Board,300,300
2x1 Menu Board Wall Mount - Landscape,"2x1 Menu Board Wall Mount - Accommodates 40-55"" Monitors - Landscape",Digital Menu Board,405,475
2x1 Menu Board Wall Mount - Portrait,"2x1 Menu Board Wall Mount - Accommodates 40-55"" Monitors - Portrait ",Digital Menu Board,405,475
"32"" Digital Signage Monitor With SOC","32"" Digital Signage Monitor With SOC Media Player Built In",Digital Menu Board,520,675
"43"" Digital Signage Monitor With SOC","43"" Digital Signage Monitor With SOC Media Player Built In",Digital Menu Board,650,775
3x1 Menu Board Ceiling Mount - Landscape,"3x1 Menu Board Ceiling Mount - Accommodates 40-55"" Monitors - Landscape - (Poles and ceiling brackets not included)",Digital Menu Board,660,785
3x1 Menu Board Wall Mount - Landscape/Portrait,"3x1 Menu Board Wall Mount - Accommodates 40-55"" Monitors  - Landscape or Portrait",Digital Menu Board,660,785
"49"" Digital Signage Monitor With SOC","49"" Digital Signage Monitor With SOC Media Player Built In",Digital Menu Board,780,935
4x1 Menu Board Wall Mount - Landscape,"4x1 Menu Board Wall Mount - Accommodates 40-55"" Monitors - Landscape",Digital Menu Board,960,"1,160.00"
"55"" Digital Signage Monitor With SOC","55"" Digital Signage Monitor With SOC Media Player Built In",Digital Menu Board,1030,1250
"65"" Digital Signage Monitor With SOC","65"" Digital Signage Monitor With SOC Media Player Built In",Digital Menu Board,"1,570.00","1,925.00"
"2 x 1 - 43"" Portrait Orientation - Concrete Wall","43""Digital Signage",Digital Menu Board,2065,2500
"2 x 1 - 43"" Landscape Orientation - Wood Stud","43""Digital Signage",Digital Menu Board,2100,2600
"2 x 1 - 55"" Landscape Orientation - Concrete Wall","55"" Digital Signage",Digital Menu Board,2900,3500
"4 x 1 - 43"" Portrait Orientation - Concrete Wall","43""Digital Signage",Digital Menu Board,3500,4300
"3 x 1 - 55"" Landscape Orientation - Concrete Wall","55"" Digital Signage",Digital Menu Board,4200,5100
"6 x 1 - 43"" Portrait Orientation - Concrete Wall","43""Digital Signage",Digital Menu Board,5100,6300
Gift Card Kickoff Kit - 2nd Day Shipping,Gift Card Kickoff Kit - 2nd Day Shipping,Gift Cards,0,85
Imaging Setup Fee,Imaging Setup Fee,Gift Cards,0,50
Acrylic Gift Card Stand,Acrylic Gift Card Stand,Gift Cards,13,25
Gift Card Kickoff Kit - PrePrinted,Gift Card Kickoff Kit - PrePrinted,Gift Cards,37,100
Pre-Printed Gift Card Carrier - 250 Carriers,Pre-Printed Gift Card Carrier - 250 Carriers ,Gift Cards,53,125
Gift Card Import Fee,Gift Card Import Fee,Gift Cards,125,250
Pre-Printed Gift Card Carrier - 500 Carriers,Pre-Printed Gift Card Carrier - 500 Carriers ,Gift Cards,130,200
250 Carriers - Custom Style 1,"250 Custom Carriers - Fold over 4""x6""",Gift Cards,142,203
250 Carriers - Custom Style 2,250 Custom Carriers - Tucked Flap,Gift Cards,142,225
250 Carriers - Custom Style 3,"250 Custom Carriers - Fold over 4""x6""",Gift Cards,142,203
250 Carriers - Custom Style 4,250 Custom Carriers - Tucked Flap,Gift Cards,142,225
250 Carriers - Custom Style 1,"Gift cards, carriers, and imaging fee",Gift Cards,150,200
250 Custom Gift Cards - Standard Production - 5-7 Days,250 Custom Gift Cards - Standard Production - 5-7 Days,Gift Cards,193,275
500 Carriers - Custom Style 1,"500 Custom Carriers - Style 1 - Fold over 4""x6""",Gift Cards,235,300
500 Carriers - Custom Style 3,"500 Custom Carriers - Style 3 - Pocket Book Style Holder with Tuck Flap 4.25"" x 6""",Gift Cards,235,300
500 Custom Carriers - Style 4 - Tucked Flap,500 Custom Carriers - Style 4 - Tucked Flap,Gift Cards,235,300
500 Carriers - Custom Style 1,"Gift cards, carriers, and imaging fee",Gift Cards,235,300
250 Custom Gift Cards - Rush Production - 3 Days,250 Custom Gift Cards - Rush Production - 3 Days,Gift Cards,238,340
250 Custom Gift Card - Urgent Production - 1-3 Days,250 Custom Gift Card - Urgent Production - 1-3 Days,Gift Cards,283,405
500 Custom Gift Cards - Standard Production - 5-7 Days,500 Custom Gift Cards - Standard Production - 5-7 Days,Gift Cards,285,400
"1,000 Carriers - Custom Style 4","1,000 Custom Carriers - Tucked Flap",Gift Cards,305,435
500 Custom Gift Cards - Rush Production - 3 Days,500 Custom Gift Cards - Rush Production - 3 Days,Gift Cards,324,460
"1,000 Carriers - Custom Style 1","1,000 Custom Carriers - Custom Style 1 - Fold over 4""x6""",Gift Cards,325,435
"1,000 Carriers - Custom Style 1","Gift cards, carriers, and imaging fee",Gift Cards,350,450
"1,000 Custom Gift Cards - Standard Production - 5-7 Days","1,000 Custom Gift Cards - Standard Production - 5-7 Days",Gift Cards,370,500
500 Custom Gift Card - Urgent Production - 1-3 Days,500 Custom Gift Card - Urgent Production - 1-3 Days,Gift Cards,383,550
"1,000 Custom Gift Cards - Rush Production - 3 Days","1,000 Custom Gift Cards - Rush Production - 3 Days",Gift Cards,426,605
"1,000 Custom Gift Card - Urgent Production - 1-3 Days","1,000 Custom Gift Card - Urgent Production - 1-3 Days",Gift Cards,502,725
"1,500 Custom Gift Cards - Standard Production - 5-7 Days","1,500 Custom Gift Cards - Standard Production - 5-7 Days",Gift Cards,504,1000
"2,000 Carriers - Custom Style 1","2,000 Custom Carriers - Custom Style 1 - Fold over 4""x6""",Gift Cards,520,640
"2,000 Carriers - Custom Style 1","Gift cards, carriers, and imaging fee",Gift Cards,550,700
"1,500 Custom Gift Cards - Rush Production - 3 Days","1,500 Custom Gift Cards - Rush Production - 3 Days",Gift Cards,613,875
"2,000 Custom Gift Cards - Standard Production - 5-7 Days","2,000 Custom Gift Cards - Standard Production - 5-7 Days",Gift Cards,646,920
"1,500 Custom Gift Card - Urgent Production - 1-3 Days","1,500 Custom Gift Card - Urgent Production - 1-3 Days",Gift Cards,722,"1,050.00"
"2,500 Custom Gift Cards - Standard Production - 5-7 Days","2,500 Custom Gift Cards - Standard Production - 5-7 Days",Gift Cards,749,"1,075.00"
"2,000 Custom Gift Cards - Rush Production - 3 Days","2,000 Custom Gift Cards - Rush Production - 3 Days",Gift Cards,784,"1,120.00"
"3,000 Custom Gift Cards - Standard Production - 5-7 Days","3,000 Custom Gift Cards - Standard Production - 5-7 Days",Gift Cards,900,"1,115.00"
"2,500 Custom Gift Cards - Rush Production - 3 Days","2,500 Custom Gift Cards - Rush Production - 3 Days",Gift Cards,913,"1,300.00"
"2,000 Custom Gift Card - Urgent Production - 1-3 Days","2,000 Custom Gift Card - Urgent Production - 1-3 Days",Gift Cards,922,"1,325.00"
"5,000 Carriers - Custom Style 1","Gift cards, carriers, and imaging fee",Gift Cards,1000,1250
"2,500 Custom Gift Card - Urgent Production - 1-3 Days","2,500 Custom Gift Card - Urgent Production - 1-3 Days",Gift Cards,1077,"1,540.00"
"5,000 Custom Gift Cards - Standard Production - 5-7 Days","5,000 Custom Gift Cards - Standard Production - 5-7 Days",Gift Cards,1347,"1,925.00"
"7,000 Custom Gift Cards - Standard Production - 5-7 Days","7,000 Custom Gift Cards - Standard Production - 5-7 Days",Gift Cards,1400,2100
6000 Carriers - Custom Style 1,"6000 Custom Carriers - Style 1- Fold over 4""x6""",Gift Cards,1550,1900
"5,000 Custom Gift Cards - Rush Production - 3 Days","5,000 Custom Gift Cards - Rush Production - 3 Days",Gift Cards,1636,"2,340.00"
"5,000 Custom Gift Card - Urgent Production - 1-3 Days","5,000 Custom Gift Card - Urgent Production - 1-3 Days",Gift Cards,1925,"2,750.00"
"10,000 Custom Gift Cards - Standard Production - 5-7 Days","10,000 Custom Gift Cards - Standard Production - 5-7 Days",Gift Cards,1995,"2,850.00"
"10,000 Custom Gift Cards - Rush Production - 3 Days","10,000 Custom Gift Cards - Rush Production - 3 Days",Gift Cards,2389,"3,420.00"
"10,000 Custom Gift Card - Urgent Production - 1-3 Days","10,000 Custom Gift Card - Urgent Production - 1-3 Days",Gift Cards,2783,"3,975.00"
"50,000 Custom Gift Cards - Standard Production - 5-7 Days","50,000 Custom Gift Cards - Standard Production - 5-7 Days",Gift Cards,"5,000.00","5,500.00"
Pre-Installation Remote Site Survey,5+ Terminal Pre-Installation Site Survey,Installations,0,250
LLS Setup (Local Server),LLS Setup (Local Server),Installations,73.5,149
Additional Professional Onsite Hours  - Per Hour,Additional Professional Onsite Hours - Per Hour,Installations,90,110
Lavu Remote Installation - Per Hour,Lavu Remote Installation - Per Hour\n,Installations,100,100
Professional Onsite Hours - Pre-Installation Survey (Standard),Professional Onsite Hours - Pre-Installation Survey (Standard),Installations,110,130
 Professional Epson Kitchen Display System (KDS) Installation - Per Terminal,Professional Epson Kitchen Display System (KDS) Installation - Per Terminal,Installations,132,165
Professional Installation - Turn Away Fee - Standard,Customer is not ready for the installation when tech shows up.,Installations,132,149
Professional Lavu Kitchen Display System (KDS) Installation,Professional Lavu Kitchen Display System (KDS) Installation - Per Terminal,Installations,132,163
Professional Network Cable Installation,Professional Network Cable Installation - Per Hour,Installations,132,163
Priority - Additional Professional Onsite Hours  - Per Hour,Priority - Additional Professional Onsite Hours - Per Hour,Installations,135,160
Professional Onsite Hours - Pre-Installation Survey  (Priority),Professional Onsite Hours - Pre-Installation Survey (Priority),Installations,184,230
Additional Professional Onsite Hours  - Per Hour,"Professional Onsite POS Installation - 3-4 Terminal - Priority Upgrade\n\n*Priority Hours Include: Hours outside of 7am-7pm, Same Day or Next Day Installation, Weekends, Holidays\n\n",Installations,550,715
Professional Onsite POS Installation - 1-2 Terminals,Professional Onsite POS Installation - 1-2 Terminals - Includes Hardware Configuration + Menu Build (4 Hours) + Lavu 2 Week Tune Up,Installations,699,3000
Priority Upgrade - 1-2 Terminal Installation,"Professional Onsite POS Installation - 1-2 Terminal - Priority Upgrade\n\n*Priority Hours Include: Hours outside of 7am-7pm, Next Day Installation, Weekends, Holidays\n\n",Installations,870,1075
Professional Onsite POS Installation - 3-4 Terminals,Professional Onsite POS Installation - 3-4 Terminals - Includes Hardware Configuration + Menu Build (4 Hours) + Lavu 2 Week Tune Up,Installations,1250,4000
Professional Onsite POS Installation - 5 Terminals,Professional Onsite POS Installation - 5 Terminals - Includes Hardware Configuration + Menu Build (4 Hours) + Lavu 2 Week Tune Up,Installations,1750,2095
Professional Onsite POS Installation - 5-8 Terminals,Professional Onsite POS Installation - 5-8 Terminals - Includes Hardware Configuration + Menu Build (4 Hours) + Lavu 2 Week Tune Up,Installations,1800,5000
Epson KDS Software Activation Fee,Epson KDS Software Activation Fee,KDS,0,500
Cable - 6.5' HDMI Cable,6.5' HDMI Cable,KDS,5.3,6.53
KDS Bump Bar Wall Mount,KDS Bump Bar Wall Mount,KDS,19.79,25
Monitor Mount - Silver & Black Full-Motion Tilt/Swivel,"Monitor  Wall Mount - Silver & Black Full-Motion Tilt/Swivel Adjustable Wall Mount Bracket - Max 44 lbs, 13 - 27 inch",KDS,21,40
Monitor Mount - Adjustable Tilting and Swivel Wall Mount - 13in to 27in,"Monitor Mount - Adjustable Tilt and Swivel Wall Mount Bracket  - For TVs 13in to 27in - Extension Range of 1.8in to 3.9in, VESA Patterns Up to 100x100\n",KDS,30,35
Monitor Mount - Adjustable Tilting and Swivel Wall Mount - 24in to 37in,"Monitor Mount - Adjustable Tilt and Swivel Wall Mount Bracket - For TVs 24in to 37in - Extension Range of 3.2in to 9.7in, VESA Patterns Up to 200x200\n",KDS,40,55
Epson KDS Additional Station Configuration Fee,Epson KDS Additional Station Configuration Fee,KDS,50,50
Epson KDS Configuration Fee,Epson KDS Configuration Fee,KDS,100,100
 Epson KDS Bump Bar,Epson KDS Bump Bar,KDS,135,163
KDS Pro Bump Bar,KDS Pro Bump Bar,KDS,136.13,175
KDS Monitor - 21.5 inch,KDS LED Monitor - 21.5 inch - Black - 1680 x 1050,KDS,175,220
KDS Monitor - 32 inch,KDS LED Monitor - 32 inch - Black - 1920x1080\n,KDS,260,315
KDS Controller,KDS Controller,KDS,377,499
Epson KDS - KDS Expansion Bundle,"Epson KDS - Includes Bump Bar(s) - Configuration Included - (Monitor Not Included)\n\nNote: If any support or configuration is needed after initial configuration, a Windows OS Computer must be onsite and on the same LAN as Lavu. *Additional Configuration Fee will apply.",KDS,475,600
"ELO KDS Monitor - 22"" Touch Screen","ELO KDS Monitor - 22"" Touch Screen",KDS,490,590
Epson KDS - 1 Station Bundle,"Epson KDS - Includes Bump Bar(s) - Configuration Included - (Monitor Not Included)\n\nNote: If any support or configuration is needed after initial configuration, a Windows OS Computer must be onsite and on the same LAN as Lavu. *Additional Configuration Fee will apply.",KDS,675,800
Epson KDS - Additional Station for 1st Station KDS,"Epson KDS - Includes Bump Bar(s) - Configuration Included - (Monitor Not Included)\n\nNote: If any support or configuration is needed after initial configuration, a Windows OS Computer must be onsite and on the same LAN as Lavu. *Additional Configuration Fee will apply.",KDS,800,1000
Epson KDS - 1 Station Bundle,"Epson KDS - Includes Elo Touch Screen Monitor(s) - Configuration Included\n\nNote: If any support or configuration is needed after initial configuration, a Windows OS Computer must be onsite and on the same LAN as Lavu. *Additional Configuration Fee will apply.",KDS,975,1200
Epson KDS - 2 Station Bundle,"Epson KDS - Includes Bump Bar(s) - Configuration Included - (Monitor Not Included)\n\nNote: If any support or configuration is needed after initial configuration, a Windows OS Computer must be onsite and on the same LAN as Lavu. *Additional Configuration Fee will apply.",KDS,1300,1300
Epson KDS - 3 Station Bundle,"Epson KDS - Includes Bump Bar(s) - Configuration Included - (Monitor Not Included)\n\nNote: If any support or configuration is needed after initial configuration, a Windows OS Computer must be onsite and on the same LAN as Lavu. *Additional Configuration Fee will apply.",KDS,1750,2200
Epson KDS - 2 Station Bundle,"Epson KDS - Includes Elo Touch Screen Monitor(s) - Configuration Included\n\nNote: If any support or configuration is needed after initial configuration, a Windows OS Computer must be onsite and on the same LAN as Lavu. *Additional Configuration Fee will apply.",KDS,2000,2400
Epson KDS - 4 Station Bundle,"Epson KDS - Includes Bump Bar(s) - Configuration Included - (Monitor Not Included)\n\nNote: If any support or configuration is needed after initial configuration, a Windows OS Computer must be onsite and on the same LAN as Lavu. *Additional Configuration Fee will apply.",KDS,2200,2750
Epson KDS - 5 Station Bundle,"Epson KDS - Includes Bump Bar(s) - Configuration Included - (Monitor Not Included)\n\nNote: If any support or configuration is needed after initial configuration, a Windows OS Computer must be onsite and on the same LAN as Lavu. *Additional Configuration Fee will apply.",KDS,2700,3300
Epson KDS - 3 Station Bundle,"Epson KDS - Includes Elo Touch Screen Monitor(s) - Configuration Included\n\nNote: If any support or configuration is needed after initial configuration, a Windows OS Computer must be onsite and on the same LAN as Lavu. *Additional Configuration Fee will apply.",KDS,2800,3500
Epson KDS - 6 Station Bundle,"Epson KDS - Includes Bump Bar(s) - Configuration Included - (Monitor Not Included)\n\nNote: If any support or configuration is needed after initial configuration, a Windows OS Computer must be onsite and on the same LAN as Lavu. *Additional Configuration Fee will apply.",KDS,3200,4000
Epson KDS - 7 Station Bundle,"Epson KDS - Includes Bump Bar(s) - Configuration Included - (Monitor Not Included)\n\nNote: If any support or configuration is needed after initial configuration, a Windows OS Computer must be onsite and on the same LAN as Lavu. *Additional Configuration Fee will apply.",KDS,3600,4500
Epson KDS - 8 Station Bundle,"Epson KDS - Includes Bump Bar(s) - Configuration Included - (Monitor Not Included)\n\nNote: If any support or configuration is needed after initial configuration, a Windows OS Computer must be onsite and on the same LAN as Lavu. *Additional Configuration Fee will apply.",KDS,4000,5000
9.7” Kiosk Floor Standing Bundle - No Printer - Black,Kiosk Floor Standing Bundle - Black,Kiosk,725,900
9.7” Kiosk Floor Standing Bundle - Black,Kiosk Floor Standing Bundle - Black,Kiosk,900,1200
Elo Bundle - 15-inch I-Series 2.0 Display with Wall Mount,"Elo Bundle - 15-inch I-Series 2.0 Display with Wall Mount - Includes 15-inch Monitor, Monitor Wall Mount, PayPal Chip and Tap Reader with Charging Base and Wall Mount\n",Kiosk,925,1145
Elo Bundle - 22-inch I-Series 2.0 Display with Wall Mount,"Elo Bundle - 22-inch I-Series 2.0 Display with Wall Mount - Includes 22-inch Monitor, Monitor Wall Mount, PayPal Chip and Tap Reader with Charging Base and Wall Mount\n",Kiosk,1010,1250
12.9” Kiosk Floor Standing Bundle - No Printer - Black,Kiosk Floor Standing Bundle - Black,Kiosk,1100,1400
Elo Bundle - 15-inch I-Series 2.0 Display with Self-Service Countertop Stand,"Elo Bundle - 15-inch I-Series 2.0 Display with Self-Service Countertop Stand - Includes 15-inch Monitor, Countertop Stand, PayPal Chip and Tap Reader with Charging Base",Kiosk,1110,1375
9.7” Kiosk Bundle - No Printer - White,"9.7” Kiosk Bundle - No Printer - Includes case, tablet, payment terminal, and necessary cables - White",Kiosk,1200,1550
9.7” Kiosk Bundle - No Printer - Black,"9.7” Kiosk Bundle - No Printer - Includes case, tablet, payment terminal, and necessary cables - Black",Kiosk,1200,1550
Elo Bundle - 22-inch I-Series 2.0 Display with Self-Service Countertop Stand,"Elo Bundle - 22-inch I-Series 2.0 Display with Self-Service Countertop Stand - Includes Epson TM-T88VI (6) Thermal Printer, 7ft Ethernet Cable & PayPal Chip and Tap Reader (Chip & Tap Stand not included)",Kiosk,1215,1540
12.9” Kiosk Floor Standing Bundle - Black,Kiosk Floor Standing Bundle - Black,Kiosk,1300,1600
9.7” Kiosk Bundle - Black,"Kiosk Bundle for 9.7"" iPad - Includes receipt printer, case, tablet, payment terminal, and necessary cables - Black",Kiosk,1400,1750
Elo Bundle - 22-inch I-Series 2.0 Display with Self-Service Floor Stand Extension,"Elo Bundle - 22-inch I-Series 2.0 Display with Self-Service Floor Stand Extension - Includes Epson TM-T88VI (6) Thermal Printer, 7ft Ethernet Cable & PayPal Chip and Tap Reader (Chip & Tap Stand not included)\n",Kiosk,1620,2040
1 Hour Menu Build,1 Hour Menu Build,Menu Build,36.75,79
1 Hour after having purchased 4 Hours,1 Hour after having purchased 4 Hours,Menu Build,37,59
2 Hour Menu Build,2 Hour Menu Build,Menu Build,73.5,149
4 Hour Menu Build,4 Hour Menu Build,Menu Build,147,249
Screen Protector - iPad Mini 4/5 Screen Protector,Screen Protector - iPad Mini 4/5 Screen Protector - Anti-Glare/Anti-Fingerprint,mPOS Device,15,25
Screen Protector - iPad Air/9.7 - Anti-Glare,Screen Protector - iPad Air/9.7 - Anti-Glare,mPOS Device,25,30
AppleCare+ Protection Plan - iPad 9.7 and iPad Mini,AppleCare+ Protection Plan - iPad 9.7 and iPad Mini,mPOS Device,94,99
Apple iPod Touch 32GB,Apple Hardware,mPOS Device,199,199
Apple iPod Touch 32GB,Apple Hardware,mPOS Device,199,199
**REFURBISHED. Final Sale.** iPad Air 16GB Wifi Only,Apple Hardware,mPOS Device,229,229
"**OPEN BOX. FINAL SALE. NO WARRANTY** Apple iPad 9.7"" Wi-Fi 32 GB - Space Gray",Apple Hardware,mPOS Device,245,250
**REFURBISHED. Final Sale.** Apple iPad Mini 2,Apple Hardware,mPOS Device,250,250
**REFURBISHED. Final Sale.** Apple iPad Mini 4,Apple Hardware,mPOS Device,299,299
" Apple iPad 9.7"" Wi-Fi 32 GB - Space Gray",Apple Hardware,mPOS Device,325,329
 Socket Mobile Bluetooth 2D Barcode Scanner - Gray,"Socket Mobile Bluetooth 2D Barcode Scanner - Series 7 - Gray - Scanner, Batteries, and Charging Kit included \n\n",mPOS Device,375,429
iPad Mini 5 - Wi-Fi Only - Space Gray,Apple Hardware,mPOS Device,399,399
"Apple iPad 9.7"" Wi-Fi + Cellular 32 GB - Space Gray",Apple Hardware,mPOS Device,459,459
iPad Mini 5 - Wi-Fi + Cellular - Space Gray,Apple Hardware,mPOS Device,529,529
**REFURBISHED. Final Sale.** Apple iPad Pro 12.9,Apple Hardware,mPOS Device,660,660
Lavu Pre-Configured Apple Mac Mini,Apple Hardware,mPOS Device,675,750
Lavu Pre-Configured Apple Mac Mini - 1TB,Apple Hardware,mPOS Device,750,850
Apple iPad Pro 12.9 - Space Gray,Apple Hardware,mPOS Device,979,999
Ethernet Cable - 10ft,Ethernet Cable - 10ft,Networking,10,25
Ethernet Cable - 7ft,Ethernet Cable - 7ft - Black,Networking,10,20
Ethernet Cable - 25ft,Ethernet Cable - 25ft - Black,Networking,12,30
Ethernet Cable - 50ft,Ethernet Cable - 50ft - Black,Networking,15,35
Ethernet Cable - 75ft,Ethernet Cable - 75ft - Black,Networking,18,40
Ethernet Cable - 100ft,Ethernet Cable - 100ft - Black,Networking,20,45
PoE Adapter,PoE (Power over Ethernet) Adapter - POE‑48‑24W‑G,Networking,25,30
NetGear 8-Port Switch,NetGear 8-Port Unmanaged Switch w/ NO Power Over Ethernet,Networking,60,80
POS Terminal Hardwire Kit - Ethernet,POS Terminal Hardwire Kit - Ethernet\n*iDynamo not supported with this product,Networking,68,68
Lavu Certified & Pre-Configured UniFi AC Mesh Outdoor AP,Lavu Certified & Pre-Configured Access Point Outdoor - UniFi AC Mesh Wide-Area Indoor/Outdoor Dual-Band Access Point.,Networking,89.99,149
USB Charging Station - 10-Port,USB Charging Station - 10-Port,Networking,90,245
Ubiquiti EdgeSwitch 5-Port Switch w/ PoE (24V ONLY),Lavu Certified & Pre-Configured Ubiquiti EdgeSwitch 5-Port w/ Power Over Ethernet Managed Switch,Networking,95,95
Ubiquiti Unifi Switch 8-Port 60W w/ PoE,Ubiquiti 8-Port Managed Gigabit Switch - 4 PoE Ports,Networking,115,140
Lavu Certified Access Point AC Lite,"Lavu Certified Access Point AC Lite (Indoor, 2.4 GHZ Speed = 300 Mbps, 5 GHZ Speed = 867 Mbps, PoE Mode = 24V Passive PoE, Ports = (1) 10/100/1000 Ethernet, Range = 122M (400ft)) - Does not include ethernet cord",Networking,160,200
"Lavu Cellular Modem - T-Mobile, Sprint, and AT&T",Lavu Cellular Modem - LTE SIM card required and not included - Card adapter included,Networking,165,200
Ubiquiti ToughSwitch 8-Port Switch w/ POE Management,Ubiquiti ToughSwtich 8-Port w/ Power Over Ethernet Managed Switch,Networking,190,190
Cisco 16 Port Gigabit Switch,Cisco 16 Port Gigabit Switch,Networking,199,199
Lavu Cellular Modem - Verizon,Lavu Cellular Modem - LTE SIM card required and not included - Card adapter included,Networking,225,275
Lavu Certified Access Point AP Pro,"Lavu Certified Access Point AC Pro (Indoor/Outdoor, 2.4 GHZ Speed = 450 Mbps, 5 GHZ Speed = 1300 Mbps, PoE Mode = 802.3af PoE/802.3at PoE+, Ports = (2) 10/100/1000 Ethernet, Range = 122M (400ft)) (Does not include ethernet cable)",Networking,225,280
Ubiquiti EdgeRouter 5-Port Router w/ PoE,Lavu Certified & Pre-Configured Router - 5 Port Power Over Ethernet (Requires Access Point),Networking,255,325
Ubiquiti Unif Switch 16- Port 150W w/ PoE,Ubiquiti Unifi Switch 16-port 150W,Networking,315,395
Ubiquiti Unifi Switch 24-Port 250W w/ PoE,Ubiquiti 24-Port 250W Managed Power Over Ethernet Switch w/ Small Form Factor Pluggable (SFP),Networking,420,520
Ubiquiti UniFi Video G3-AF Wireless Camera,Ubiquiti UniFi Video G3-AF Wireless Camera ,Networking,0,199
Ubiquiti UniFi Video G3-Pro Wireless Camera,Ubiquiti UniFi Video G3-Pro Wireless Camera ,Networking,0,299
UniFi Cloud Key,"Ubiquiti Unifi Cloud Key (Secure UniFi Hybrid Cloud Technology, Fully Integrated, Stand-Alone UniFi Controller Hardware, Remote, Private Cloud Access to the UniFi Controller)",Networking,0,106
Specialist POS Implementation Services,Specialist POS Implementation Services,Other Services,0,0
Specialist POS Installation,Specialist POS Installation,Other Services,0,0
Specialist POS Installation & Training,Specialist POS Installation & Training,Other Services,0,0
Specialist POS Menu Setup,Specialist POS Menu Setup,Other Services,0,0
Specialist POS Training,Specialist POS Training,Other Services,0,0
Tax,Tax,Other Services,0,0
Database Change Request,"Database Change Request - Includes: Menu Copies, Menu Restorations, Inventory Wipes, Database Restores, Refunds made via customer’s gateway/virtual terminal, etc",Other Services,50,150
Lavu Loyalty App - Setup Fee - Promo,Lavu Loyalty App - Setup Fee,Other Services,500,1250
External Buzzer compatible with Epson printers,"Cases, and power supplies, misc. hardware",Printer,15,20
Power Supply for Star Micronics Printers,Power Supply for Star Micronics Printers,Printer,30,35
Epson Wall Hanging Bracket,"Cases, and power supplies, misc. hardware",Printer,45,50
Epson Wall Hanging Bracket for M30,"Cases, and power supplies, misc. hardware",Printer,45,50
Power Supply for Epson TM Printers,"Cases, and power supplies, misc. hardware",Printer,45,50
 Epson Smart Printer Re-Imaging Fee,"Cases, and power supplies, misc. hardware",Printer,50,100
Soft Case for Epson TM-P20,"Epson Accessory - Soft Case for Epson TM-P20 2"" Mobile Receipt Printer \n",Printer,50,55
 Power Supply for Epson Omnilink Intelligent Printers - T88V-i,"Cases, and power supplies, misc. hardware",Printer,65,85
Interface Card - Ethernet Interface Card for Epson TM Printer Models,"Cases, and power supplies, misc. hardware",Printer,100,115
Star Micronics: TSP650 Swappable Interface Card - Ethernet,Star Micronics: TSP650 Swappable Interface Card - Ethernet,Printer,111,150
Brother Barcode Label Printer,Brother QL-810W Bluetooth Barcode Label Printer,Printer,140,200
Epson TM-M30 Printer - Black,Wired and wireless Epson printers,Printer,165,300
Epson TM-M30 Printer - White,Wired and wireless Epson printers,Printer,165,300
Epson TM-T20ii Ethernet Printer - Grey,Wired and wireless Epson printers,Printer,200,250
Epson TM-U220B Printer,Wired and wireless Epson printers,Printer,225,425
Star Micronics: SP742 Ethernet - Kitchen Ticket Printer - Gray,Star Micronics: SP742 Ethernet - Kitchen Ticket Printer - Gray,Printer,240,295
Epson TM-M30 Printer - WiFi - Black,Wired and wireless Epson printers,Printer,250,300
Star Micronics - TSP654 Thermal Printer - USB - Gray,Star Micronics - TSP654 Thermal Printer - USB - Gray,Printer,260,320
Epson TM-T20ii Wifi Printer - Black,Wired and wireless Epson printers,Printer,275,330
Epson TM-T88V-i Printer,Wired and wireless Epson printers,Printer,300,525
Epson TM-T88VI (6) Thermal Printer - Ethernet Interface - Black,Wired and wireless Epson printers,Printer,300,375
 Star Micronics - TSP654II Thermal Printer - Ethernet - Gray,Star Micronics - TSP654II Thermal Printer - Ethernet - Gray,Printer,300,595
Star Micronics - TSP654IIE3-24 Thermal Printer - Ethernet - White ,Star Micronics - TSP654IIE3-24 Thermal Printer - Ethernet - White ,Printer,300,595
"Epson TM-P20 2"" Mobile Receipt Printer - Black",Mobile Thermal Printers,Printer,325,398
Epson TM-T88VI (6) Thermal Receipt Printer - Wifi,Wired and wireless Epson printers,Printer,325,380
Epson TM-L90 Restick Thermal Restick Ethernet Printer,Wired and wireless Epson printers,Printer,375,450
"Epson TM-P60II 2"" Mobile Receipt Printer - Black",Mobile Thermal Printers,Printer,425,525
"Epson TM-P80 3"" Mobile Receipt Printer",Mobile Thermal Printers,Printer,430,530
Epson TM-U220-i KDS Impact Printer - VGA,Epson TM-U220-i KDS Impact Printer - VGA Connection - Dark Grey. Includes 7ft. ethernet cable. ,Printer,494,931
Retractable RFID Reel - 10 Pack,Retractable RFID Reel - 10 Pack,RFID,7,20
RFID Cards - 10 Pack,RFID Cards - 10 Pack,RFID,23,45
RFID Key Fob - 10 Pack,RFID Key Fob - 10 Pack,RFID,44,60
RFID Reader - USB,RFID Reader - USB,RFID,149,185
Kiosk - Monthly Hosting - Works exclusively with Epson Printers & Epson KDS,(blank),SaaS,100,100
Lavu Kiosk - Annual - Works exclusively with Epson Printers & Epson KDS,(blank),SaaS,1044,1044
Lavu Accounting Integration - Setup Fee,Lavu Accounting Integration - Quickbooks & Xero - Annual\n,SaaS,0,300
Report Access Only - Monthly,Report Access Only,SaaS,15,15
Lavu Integrated Payments - Monthly Fee,Lavu Integrated Payments - Monthly Fee,SaaS,15,30
Monthly Hosting - Additional Terminal,Additional terminal price for terminals beyond the 4th.,SaaS,20,20
Monthly KDS 2.0 Hosting - Per Device,Monthly KDS 2.0 Hosting - Per Device,SaaS,20,20
Lavu Gift - Monthly Subscription,Lavu Gift - Monthly Subscription,SaaS,25,25
Lavu Loyalty - Monthly Subscription,Lavu Loyalty - Monthly Subscription,SaaS,25,25
Lavu Accounting Integration - Quickbooks & Xero - Monthly,Lavu Accounting Integration - Quickbooks & Xero - Monthly,SaaS,30,30
Lavu Loyalty & Gift - Monthly Subscription,Lavu Loyalty & Gift Package - Monthly Subscription,SaaS,40,40
Lavu Integrated Payments - Terminal Setup,Lavu Integrated Payments - Monthly Fee,SaaS,50,79
Monthly Recurring - POS Hosting - Per Terminal,Lavu POS Hosting Packages,SaaS,69,69
Lavu Online Ordering - Monthly,Lavu To Go - Online Ordering,SaaS,75,75
Lavu To Go - Online Ordering - Annual,Lavu To Go - Online Ordering,SaaS,75,75
Lavu To Go - Online Ordering - Monthly,Lavu To Go - Online Ordering,SaaS,75,75
Lavu - Monthly Hosting,Lavu POS Hosting Packages,SaaS,79,79
Lavu Loyalty App - Monthly Subscription,Lavu Loyalty App - Monthly Subscription - No Setup Fee,SaaS,150,150
 Lavu Integrated Payments - Annual Fee,Lavu Integrated Payments - Annual Fee\n,SaaS,175,310
Report Access Only - Annual,Report Access Only,SaaS,180,180
Annual KDS 2.0 Hosting - Per Device,Annual KDS 2.0 Hosting - Per Device,SaaS,199,199
Hosting - Additional Terminal - Annual,Additional terminal price for terminals beyond the 4th.,SaaS,240,240
Lavu Gift - Annual Subscription,Lavu Gift - Annual Subscription,SaaS,249,249
Lavu Loyalty - Annual Subscription,Lavu Loyalty - Annual Subscription,SaaS,249,249
Lavu Accounting Integration - Quickbooks & Xero - Annual,Lavu Accounting Integration - Quickbooks & Xero - Annual\n,SaaS,300,300
Lavu Loyalty & Gift - Annual Subscription,Lavu Loyalty & Gift - Annual Subscription,SaaS,399,40
Lavu Loyalty App - Setup Fee,Lavu Loyalty App - Annual Subscription,SaaS,500,1250
Yearly Recurring - POS Hosting - Per Terminal,Lavu POS Hosting Packages,SaaS,708,708
Lavu Online Ordering - Annual,Lavu Online Ordering - Annual,SaaS,799,799
Lavu - Annual Hosting,Lavu POS Hosting Packages,SaaS,828,828
Lavu Loyalty App - Annual Subscription,Lavu Loyalty App - Annual Subscription,SaaS,1800,1800
Portion Control Scale,"Portion Control Scale - Bluetooth Adapter, Power Cable and Wall Plug included",Scale,214,250
Expedited Shipping - 2nd Day AM,Expedited Shipping - 2nd Day AM,Shipping,0,0
Expedited Shipping - 2nd day Saturday,Expedited Shipping - 2nd day saturday,Shipping,0,0
Expedited Shipping - 2nd Day Standard,Expedited Shipping - 2nd Day Standard,Shipping,0,0
Expedited Shipping - 3Day Select,Expedited Shipping - 3Day Select,Shipping,0,0
Expedited Shipping - Overnight Early AM,Expedited Shipping - Overnight Early AM,Shipping,0,0
Expedited Shipping - Overnight Saturday,Expedited Shipping - Overnight Saturday,Shipping,0,0
Expedited Shipping - Overnight Standard,Expedited Shipping - Overnight Standard,Shipping,0,0
Ground Shipping,Ground  Shipping,Shipping,0,0
International Saver (3-5 Days),International Saver (3-5 Days),Shipping,0,0
International Shipping - UPS Worldwide Expedited,International Shipping - UPS Worldwide Expedited,Shipping,0,0
International Shipping - UPS Worldwide Standard,International Shipping - UPS Worldwide Standard,Shipping,0,0
International Worldwide Express,International Worldwide Express,Shipping,0,0
USPS Priority Mail International,USPS Priority Mail International,Shipping,0,0
Mobile Case for iPad Air and iPad Air 2 (Square Compatible),Mobile Rugged Case for iPad Air and iPad Air 2 (Compatible with the Square Headphone Jack Reader) - Includes Carrying Straps\n,Stands,0,115
Windfall Replacement Screws & Key,Windfall Replacement Screws & Key for Windfall Stand & Frame,Stands,5,5
iPod Touch 6th Generation Case,iPod Touch 6th Generation Case (Not compatible with iDynamo) ,Stands,9.42,15
Screws for Simplicity,"Various accessories for Vault hardware, includes screws bases, rear customer display, etc.",Stands,15,15
Screws for Vault Mobility,"Various accessories for Vault hardware, includes screws bases, rear customer display, etc.",Stands,15,15
Vault - Hand Strap for Pro Series Case - Black,"Various accessories for Vault hardware, includes screws bases, rear customer display, etc.",Stands,15,15
Vault Cable - Lightning to USB - 90 Degree - Black,"Various accessories for Vault hardware, includes screws bases, rear customer display, etc.",Stands,17,17
Windfall Right-Angle Lightning Cable - 1 Meter,Windfall Right-Angle Lightning Cable - Licensed by Apple - Compatible with Lightning Compatible iPads - 1 Meter Long,Stands,19,19
Heavy Duty 360 Rotation Armor Case - iPad Mini 4/5 - Black,Heavy Duty 360 Dual Protective Back Cover Rugged Case with Kickstand and Leather Hand Strap for iPad Mini 4/5 - Black,Stands,20,25
Vault Connect Hand Strap,Vault Connect Series,Stands,20,20
Vault - Hand Strap for Pro Series Case - Black,Vault Pro Series,Stands,20,20
Windfall PivotTable,Windfall PivotTable,Stands,20,20
"iPad Mini 360 Rotation Armor Case iPad Mini 1,2,3",Heavy Duty 360 Dual Protective Back Cover Rugged Case with Kickstand and Leather Hand Strap for iPad Mini 1 2 3(Black),Stands,20.99,25
Windfall @Rest iPad Stand,Windfall @Rest iPad Stand - Black Grey - Fits all iPad Sizes,Stands,29,29
Windfall USB Bracket,Windfall USB Bracket compatible with any Windfall Checkout Stand,Stands,29,29
Vault Rotation Base - Black,"Various accessories for Vault hardware, includes screws bases, rear customer display, etc.",Stands,30,40
Vault Pro Series - Bracket for USB Reader - iPad 9.7 and 12.9 - Black,Vault Pro Series,Stands,30,30
"Vault Pro Series - Wall Mount Bracket - Full Motion Tilt & Swivel, Vesa - Black",Vault Pro Series,Stands,30,30
Heavy Duty 360 Rotation Armor Case - iPad 9.7 - Black,Heavy Duty 360 Dual Protective Back Cover Rugged Case with Kickstand and Leather Hand Strap for iPad 9.7 - Black,Stands,32,40
Heavy Duty 360 Rotation Armor Case - iPad 9.7 - Blue,Heavy Duty 360 Dual Protective Back Cover Rugged Case with Kickstand and Leather Hand Strap for iPad 9.7 - Blue,Stands,32,40
Vault Pro Series - Brackets for iDynamo - iPad 9.7 and 12.9 - Black,Vault Pro Series,Stands,35,43
Vault Pro Series - Brackets for iDynamo - iPad 9.7 and 12.9 - White,Vault Pro Series,Stands,35,43
"Vault Pro Series - Wall Mount Bracket Arm - Full Motion Tilt & Swivel, Vesa - Black",Vault Pro Series,Stands,39,39
iPad Case - Studio Proper X Lock Case for iPad Air 1,iPad Case - Studio Proper X Lock Case for iPad Air 1,Stands,39.95,39.95
Studio Proper X Lock iPad Case Adapter Pivot Stand,Studio Proper X Lock iPad Case Adapter Pivot Stand,Stands,40.95,59.95
iPod Touch 6th Generation Case,iPod Touch 6th Generation Case with VClip for Paypal EMV compatibility (Miura reader only),Stands,42,55
Vault Pro Series - Stability Base - Black,Vault Pro Series,Stands,50,50
Vault Pro Series - Stability Base - White,Vault Pro Series,Stands,50,50
 Vault Simplicity Series - Brackets for iDynamo - iPad Mini 4/5 - Black,Vault Simplicity Series,Stands,55,70
Vault Rear Customer Display - iPad Mini,"Various accessories for Vault hardware, includes screws bases, rear customer display, etc.",Stands,60,80
Vault Rear Customer Display - iPad Mini - White,"Various accessories for Vault hardware, includes screws bases, rear customer display, etc.",Stands,60,80
 Pad Grip iPad Stand - Magnetic Combo - iPad Air 1/New iPad 9.7,Pad Grip iPad Stand - Magnetic Combo - iPad Air 1/New iPad 9.7,Stands,70,99
Windfall iPad Mini Stand,"WindFall Stand compatible with Apple iPad Mini 1,2,3,4 - Color: Black",Stands,70,99
Pad Grip Magnetic Combo X Long,Pad Grip Magnetic Combo X Long,Stands,75,99
Vault Pro Series - Flip Base - Black,Vault Pro Series,Stands,75,89
Vault Simplicity - Base - 9.7 iPad - Black,Vault Simplicity Series,Stands,85,100
Vault Simplicity - Base - 9.7 iPad - White,Vault Simplicity Series,Stands,85,100
 Vault Simplicity Series - Brackets for iDynamo - iPad 9.7 - Black,Vault Simplicity Series,Stands,85,100
 Vault Simplicity Series - Brackets for iDynamo - iPad 9.7 - White,Vault Simplicity Series,Stands,85,100
Vault Simplicity Series - Brackets for NOCC - iPad 9.7- Black,Vault Simplicity Series,Stands,85,100
Vault Simplicity Series - Brackets for NOCC - iPad 9.7- White,Vault Simplicity Series,Stands,85,100
Vault Simplicity Series - Brackets for USB - iPad 9.7- Black,Vault Simplicity Series,Stands,85,100
Windfall Checkout Stand - iPad 9.7 - Black Grey,"Heckler WindFall Checkout Stand compatible with Apple iPad Air 1, iPad Air 2, iPad Pro 9.7-inch, iPad (5th Gen) - Optional iDynamo Bracket Included\n",Stands,95,119
Windfall Checkout Stand - iPad 9.7 - Grey White,"Heckler WindFall Checkout Stand compatible with Apple iPad Air 1, iPad Air 2, iPad Pro 9.7-inch, iPad (5th Gen) - Optional iDynamo Bracket Included\n",Stands,95,119
"Windfall Checkout Stand - Mini 1, 2, 3, 4 - Black Grey","Heckler WindFall Checkout Stand compatible with Apple iPad Mini 1, 2 , 3, 4 - Color: Black Grey - Optional iDynamo 5 Support Included\n",Stands,95,119
"Windfall Checkout Stand - Mini 1, 2, 3, 4 - Grey White","Heckler WindFall Checkout Stand compatible with Apple iPad Mini 1, 2 , 3, 4 - Color: Grey White - Optional iDynamo 5 Support included\n",Stands,95,115
Heckler Meeting Room Console for iPad,"Heckler Meeting Room Console for iPad compatible with Apple iPad Air 1, iPad Air 2, and iPad Pro 9.7"" (2017 & 2018) - No Credit Card Support - Color: Black Grey",Stands,98,119
Windfall Wall Mount - Grey White,"Windfall Wall Mount - iPad Air 1, iPad Air 2, iPad Pro 9.7-inch, iPad (5th Gen), iPad (6th Gen) - Optional iDynamo support included - Grey White",Stands,100,129
MVP for iPad Air 1 /2,NClose MVP for iPad Air 1 /2,Stands,104,170
Vault Connect - Case with iDynamo Bracket - iPad Mini 4/5 - Black,Vault Connect Series,Stands,105,125
Vault Connect - NOCC Case - iPad Mini 4/5 - Black,Vault Connect Series,Stands,105,125
Windfall Checkout Stand - iPad 9.7 with USB Bracket - Black Grey,"Heckler WindFall Checkout Stand compatible with Apple iPad Air 1, iPad Air 2, iPad Pro 9.7-inch, iPad (5th Gen) and IDTech USB Reader (Not Compatible with Heartland USB Reader) - Color: Black Grey - Optional iDynamo Bracket Included\n",Stands,109,148
Vault Simplicity Series - Base and Brackets for iDynamo - iPad Mini 4/5 - Black,Vault Simplicity Series,Stands,110,122
Vault Simplicity Series - Base and Brackets for NOCC - iPad Mini 4/5 - Black,Vault Simplicity Series,Stands,110,122
"Vault Connect - Case with iDynamo Bracket - iPad Air, Air 2, 9.7 - Black",Vault Connect Series,Stands,115,140
"Vault Pro Series - Pole Mount - 12""",Vault Pro Series,Stands,120,145
"Vault Pro Series - Pole Mount - 6""",Vault Pro Series,Stands,120,145
"Vault Pro Series - Pole Mount - 9""",Vault Pro Series,Stands,120,145
Vault Simplicity Bundle - Base and Plastic NOCC Brackets - iPad 9.7 - Black,Vault Simplicity Series,Stands,120,200
Windfall Checkout Stand - iPad 12.9 - Black Grey,Heckler WindFall Checkout Stand compatible with Apple iPad Pro 12.9″  - Optional iDynamo Bracket Included - Black Grey\n,Stands,120,145
Vault Connect - Case with iDynamo Bracket and Handstrap - iPad Mini 4/5 - Black,Vault Connect Series,Stands,125,145
Vault Connect - NOCC Case with Handstrap - iPad Mini 4/5 - Black,Vault Connect Series,Stands,125,145
"Vault Connect - Case with iDynamo Bracket and Handstrap - iPad Air, Air 2, 9.7 - Black",Vault Connect Series,Stands,130,160
Vault Pro Series - Case - iPad 9.7 - Black,Vault Pro Series,Stands,130,160
Vault Pro Series - Case - iPad 9.7 - White,Vault Pro Series,Stands,130,160
Windfall Checkout Stand - USB compatible - iPad 12.9 - Black Grey,Heckler WindFall Checkout Stand compatible with Apple iPad Pro 12.9″ and IDTech USB Reader (Not Compatible with Heartland USB Reader) - Optional iDynamo Bracket Included - Black Grey\n\n,Stands,140,178
Vault Connect Series - iPad 9.7 iDynamo Bundle - Includes Case and Stability Base - Black,Vault Connect Series,Stands,150,200
Vault Connect Series - Mini 5 iDynamo Bundle - Includes Case and Stability Base - Black,Vault Connect Series,Stands,150,175
Vault Connect Series - Mini 5 NOCC Bundle - Includes Case and Stability Base - Black,Vault Connect Series,Stands,150,175
"Vault Pro Series - iPad 9.7 Bundle - Case, Flip Base and iDynamo bracket - Black",Vault Pro Series,Stands,155,190
"Vault Pro Series - iPad 9.7 Bundle - Case, Stability Base and iDynamo bracket - Black",Vault Pro Series,Stands,155,190
"Vault Pro Series - iPad 9.7 Bundle - Case, Stability Base and iDynamo bracket - White",Vault Pro Series,Stands,155,190
Vault Simplicity Bundle - Base and Brackets for iDynamo - iPad 9.7 - Black,Vault Simplicity Series,Stands,155,190
Vault Simplicity Bundle - Base and Brackets for iDynamo - iPad 9.7 - White,Vault Simplicity Series,Stands,155,190
Vault Simplicity Bundle - Base and Brackets w/ NOCC - iPad 9.7 - Black,Vault Simplicity Series,Stands,155,190
Vault Simplicity Bundle - Base and Brackets w/ NOCC - iPad 9.7 - White,Vault Simplicity Series,Stands,155,190
Vault Simplicity Bundle - Base and Brackets for USB - iPad 9.7 - Black,Vault Simplicity Series,Stands,155,190
Vault Pro Series - Case - iPad Pro 12.9 - Black (2017),Vault Pro Series,Stands,160,200
Vault Pro Series - Case - iPad Pro 12.9 - White (2017),Vault Pro Series,Stands,160,200
Universal Tablet Enclosure Case for ISMP4 - iPad Mini,Universal Tablet Enclosure Case for ISMP4 - Compatible with iPad mini 4 (Bluetooth) - ISMP4 and iPAD MINI SOLD SEPARATELY,Stands,174,215
Vault Connect Series - iPad 9.7 iDynamo Bundle - Includes Case and Flip Base - Black,Vault Connect Series,Stands,175,225
Vault Connect Series - Mini 5 iDynamo Bundle - Includes Case and Flip Base - Black,Vault Connect Series,Stands,175,200
Vault Connect Series - Mini 5 NOCC Bundle - Includes Case and Flip Base - Black,Vault Connect Series,Stands,175,200
Vault Pro Series - iPad 9.7 NOCC Bundle - Includes Case and Stability Base - Black,Vault Pro Series,Stands,180,210
"Vault Pro Series - iPad 9.7 Bundle - Case, Stability Base and USB bracket - Black",Vault Pro Series,Stands,200,250
Vault Pro Series - iPad 9.7 NOCC Bundle - Includes Case and Flip Base - Black,Vault Pro Series,Stands,200,255
"Vault Pro Series - iPad Pro 12.9 Bundle - Case, Stability Base and USB bracket - Black (2017)",Vault Pro Series,Stands,230,285
Vault Pro Series - 50-inch Kiosk Base - Black,Vault Pro Series,Stands,235,295
"Vault Pro Series - iPad Pro 12.9 Bundle - Case, Stability Base and iDynamo Bracket - Black (2017)",Vault Pro Series,Stands,240,295
"Vault Pro Series - iPad Pro 12.9 Bundle - Case, Stability Base and iDynamo bracket - White (2017)",Vault Pro Series,Stands,250,295
"Vault Pro Series - iPad Pro 12.9 Bundle - Case, Flip Base and iDynamo Bracket - Black",Vault Pro Series,Stands,265,325
Vault Pro Series - iPad Pro 12.9 Bundle - Case and Flip Base - Black,Vault Pro Series,Stands,290,315
Vault Pro Series - iPad Pro 12.9 Bundle - Case and Stability Base - Black,Vault Pro Series,Stands,290,315
Heckler Windfall POS Hardware Bundle,Heckler Windfall POS Hardware Bundle - Includes: WindFall Checkout Stand for iPad 9.7 and WindFall Cash Drawer - Black Grey\n,Stands,361.2,499
Lavu Remote On-boarding Service (2 Hours) - Up to 4 People,Lavu Remote On-boarding Service (2 Hours) - Up to 4 People,Training,74,199
Lavu Remote Training (2 Hours) - Up to 4 People,Lavu Remote Training (2 Hours) - Up to 4 People,Training,74,199
Lavu Remote Onboarding Service (1 Hour) - Up to 4 People,Lavu Remote Onboarding Service (1 Hour) - Up to 4 People,Training,75,119
Lavu Remote Onboarding Service (4 Hours) - Up to 4 People,Lavu Remote On-boarding Service (4 Hours) - Up to 4 People\n,Training,147,299
Lavu Remote Training (4 Hours) - Up to 4 People,Lavu Remote Training (4 Hours) - Up to 4 People,Training,147,299
Lavu Remote On-boarding Service (8 Hours) - Up to 4 People,Lavu Remote On-boarding Service (8 Hours) - Up to 4 People,Training,294,499
Lavu Remote Training (8 Hours) - Up to 4 People,Lavu Remote Training (8 Hours) - Up to 4 People,Training,294,499