<?xml version="1.0" encoding="UTF-8"?>
<svg width="520px" height="520px" viewBox="0 0 520 520" version="1.1" xmlns="http://www.w3.org/2000/svg" xmlns:xlink="http://www.w3.org/1999/xlink">
    <!-- Generator: Sketch 52.5 (67469) - http://www.bohemiancoding.com/sketch -->
    <title>Illustration</title>
    <desc>Created with Sketch.</desc>
    <defs>
        <linearGradient x1="50%" y1="100%" x2="50%" y2="0%" id="linearGradient-1">
            <stop stop-color="#18115B" offset="0%"></stop>
            <stop stop-color="#4A2151" offset="100%"></stop>
        </linearGradient>
        <circle id="path-2" cx="256" cy="256" r="256"></circle>
        <filter x="-1.4%" y="-1.0%" width="102.7%" height="102.7%" filterUnits="objectBoundingBox" id="filter-4">
            <feOffset dx="0" dy="2" in="SourceAlpha" result="shadowOffsetOuter1"></feOffset>
            <feGaussianBlur stdDeviation="2" in="shadowOffsetOuter1" result="shadowBlurOuter1"></feGaussianBlur>
            <feColorMatrix values="0 0 0 0 0   0 0 0 0 0   0 0 0 0 0  0 0 0 0.5 0" type="matrix" in="shadowBlurOuter1"></feColorMatrix>
        </filter>
        <filter x="-4.3%" y="-5.7%" width="108.6%" height="111.4%" filterUnits="objectBoundingBox" id="filter-5">
            <feOffset dx="0" dy="2" in="SourceAlpha" result="shadowOffsetOuter1"></feOffset>
            <feGaussianBlur stdDeviation="2" in="shadowOffsetOuter1" result="shadowBlurOuter1"></feGaussianBlur>
            <feColorMatrix values="0 0 0 0 0.711920706   0 0 0 0 0.711920706   0 0 0 0 0.711920706  0 0 0 0.5 0" type="matrix" in="shadowBlurOuter1" result="shadowMatrixOuter1"></feColorMatrix>
            <feMerge>
                <feMergeNode in="shadowMatrixOuter1"></feMergeNode>
                <feMergeNode in="SourceGraphic"></feMergeNode>
            </feMerge>
        </filter>
        <rect id="path-6" x="0" y="0" width="280" height="210" rx="5"></rect>
    </defs>
    <g id="Browser-Error" stroke="none" stroke-width="1" fill="none" fill-rule="evenodd">
        <g id="Browser-Message" transform="translate(-140.000000, -254.000000)">
            <g id="Illustration" transform="translate(144.000000, 256.000000)">
                <mask id="mask-3" fill="white">
                    <use xlink:href="#path-2"></use>
                </mask>
                <g id="Circle">
                    <use fill="black" fill-opacity="1" filter="url(#filter-4)" xlink:href="#path-2"></use>
                    <use fill="url(#linearGradient-1)" fill-rule="evenodd" xlink:href="#path-2"></use>
                </g>
                <g id="Browser-Icon" mask="url(#mask-3)">
                    <g transform="translate(116.000000, 151.000000)">
                        <g id="Browser" filter="url(#filter-5)">
                            <g id="Browser-Bar">
                                <mask id="mask-7" fill="white">
                                    <use xlink:href="#path-6"></use>
                                </mask>
                                <use id="Mask" fill="#FFFFFF" xlink:href="#path-6"></use>
                                <rect fill-opacity="0.14" fill="#23163F" mask="url(#mask-7)" x="0" y="0" width="280" height="16"></rect>
                            </g>
                            <circle id="Red-Circle" fill="#FF625A" cx="8" cy="8" r="2"></circle>
                            <circle id="Yellow-Circle" fill="#FFBE2F" cx="15" cy="8" r="2"></circle>
                            <circle id="Green-Circle" fill="#28CA42" cx="22" cy="8" r="2"></circle>
                        </g>
                        <g id="Download-Icon" transform="translate(108.000000, 73.000000)">
                            <polygon id="Path" points="0 0 65 0 65 64 0 64"></polygon>
                            <polygon id="Shape" fill="#23163F" fill-rule="nonzero" points="40.2425537 8.5 24.50354 8.5 24.50354 24.4642857 10.6640625 24.4642857 32.3730469 45.75 54.0820312 24.4642857 40.2425537 24.4642857"></polygon>
                            <rect id="Rectangle" fill="#23163F" x="10.6640625" y="50.25" width="43.4179687" height="5.25"></rect>
                        </g>
                    </g>
                </g>
            </g>
        </g>
    </g>
</svg>
