{
	"skinpack_name": "inbev",
	"css_overrides":{
		"webview": {
			"css_file_name":"webview_block.css"
		}
	},
	"settings": {
		"order-background-image": {
			"type": "image",
			"image_name": "BG.png"
		},
		"order-background-color": {
			"type": "color",
			"value": "#ffffff",
			"transparency": "0"
		},
		"settings-button-image": {
			"type": "image",
			"image_name": "settingsBtn.png",
			"pressed_image_name": "settingsBtnOvr.png"
		},
		"generic-tabs-button-image": {
			"type": "image",
			"image_name": "tabs.png",
			"pressed_image_name": "tabsOvr.png"
		},
		"checkout-button-image": {
			"type": "image",
			"image_name": "checkoutTab.png",
			"pressed_image_name": "checkoutTabOvr.png"
		},
		"checkout-button-text":{
			"type": "font",
			"font-type": "Nanami-Book",
			"font-size": "15px",
			"font-color": "#ffffff",
			"pressed-font-color": "#ffffff"
		},
		"split-button-image": {
			"type": "image",
			"image_name": "splitBtn.png",
			"pressed_image_name": "splitBtnOvr.png"
		},
		"send-button-image": {
			"type": "image",
			"image_name": "sendBtn.png",
			"pressed_image_name": "sendBtnOvr.png"
		},
		"top-bar-image": {
			"type": "image",
			"image_name": "topBar.png"
		},
		"ticket-background-image": {
			"type": "image",
			"image_name": "ticketBG.png"
		},
		"customer-name-background-image":{
			"type": "image",
			"image_name": "custNameBG.png",
			"pressed_image_name": "custNameBGOvr.png"
		},
		"total-background-image": {
			"type": "image",
			"image_name": "bottomTotalBar.png"
		},
		"selected-bottom-bar-tab-image": {
			"type": "image",
			"image_name": "bottomBtnSelected.png"
		},
		"unselected-bottom-bar-tab-image": {
			"type": "image",
			"image_name": "bottomBtnUnselected.png"
		},
		"app-background-image": {
			"type": "image",
			"image_name": "BG.png"
		},
		"tab-text": {
			"type": "font",
			"font-type": "Nanami-Lt",
			"font-size": "15px",
			"font-color": "#005596",
			"pressed-font-color": "#005596"
		},
		"split-check-button-text": {
			"type": "font",
			"font-type": "Nanami-ExLt",
			"font-size": "14px",
			"font-color": "#005596",
			"pressed-font-color": "#005596"
		},
		"send-button-text":{
			"type": "font",
			"font-type": "Nanami-Lt",
			"font-size": "14px",
			"font-color": "#ffffff",
			"pressed-font-color": "#ffffff"
		},
		"customer-position-text": {
			"type": "font",
			"font-type": "Nanami-Lt",
			"font-size": "35pt",
			"font-color": "#005596",
			"pressed-font-color": "#005596"
		},
		"order-id-text": {
			"type": "font",
			"font-type": "Nanami-ExLt",
			"font-size": "55pt",
			"font-color": "#005596",
			"pressed-font-color": "#005596"
		},
		"opened-date-time-text": {
			"type": "font",
			"font-type": "Nanami-Lt",
			"font-size": "44pt",
			"font-color": "#005596",
			"pressed-font-color": "#005596"
		},
		"customer-name-text": {
			"type": "font",
			"font-type": "Nanami-Lt",
			"font-size": "16pt",
			"font-color": "#ffffff",
			"pressed-font-color": "#ffffff"
		},
		"order-description-text": {
			"type": "font",
			"font-type": "Nanami-Book",
			"font-size": "18pt",
			"font-color": "#555555",
			"pressed-font-color": "#555555"
		},
		"order-total-text": {
			"type": "font",
			"font-type": "Nanami-Lt",
			"font-size": "24pt",
			"font-color": "#ffffff",
			"pressed-font-color": "#ffffff"
		},
		"selected-order-bottom-button-text": {
			"type": "font",
			"font-type": "Nanami-Lt",
			"font-size": "14pt",
			"font-color": "#ffffff"
		},
		"unselected-order-bottom-button-text": {
			"type": "font",
			"font-type": "Nanami-Book",
			"font-size": "14pt",
			"font-color": "#ffffff"
		},
		"checkout-order-overlay-background-color": {
			"type": "color",
			"value": "#ffffff"
		},
		"checkout-layout-guest-text": {
			"type": "font",
			"font-type": "Nanami-Lt",
			"font-size": "40pt",
			"font-color": "#005596"
		},
		"checkout-number-entry-text": {
			"type": "font",
			"font-type": "Nanami-Book",
			"font-size": "128pt",
			"font-color": "#005596"
		},
		"credit-card-image": {
			"type": "image",
			"image_name":"ccIcon.png"
		},
		"checkout-total-background-image": {
			"type": "image",
			"image_name":"checkTotalBG.png"
		},
		"calculator-entry-window-image": {
			"type": "image",
			"image_name":"checkWindow.png"
		},
		"calculator-entry-text":{
			"type": "font",
			"font-type": "Nanami-Book",
			"font-size": "38pt",
			"font-color": "#005596"
		},
		"clear-button-image": {
			"type":"image",
			"image_name":"clearBtn.png",
			"pressed_image_name":"clearBtnOvr.png"
		},
		"clear-button-text":{
			"type": "font",
			"font-type": "Nanami-Book",
			"font-size": "28pt",
			"font-color": "#005596",
			"pressed-font-color": "#005596"
		},
		"numeric-button-text":{
			"type": "font",
			"font-type": "Nanami-Book",
			"font-size": "24pt",
			"font-color": "#005596",
			"pressed-font-color": "#005596"
		},
		"bottom-checkout-buttons-text":{
			"type": "font",
			"font-type": "Nanami-Book",
			"font-size": "24pt",
			"font-color": "#FFFFFF",
			"pressed-font-color": "#ffffff"
		},
		"delete-button-image": {
			"type":"image",
			"image_name":"deleteBtn.png",
			"pressed_image_name":"deleteBtnOvr.png"
		},
		"digit-entry-button-image":{
			"type":"image",
			"image_name":"numBtns.png",
			"pressed_image_name":"numBtnsOvr.png"
		},
		"zero-digit-button-image": {
			"type":"image",
			"image_name":"0.png",
			"pressed_image_name":"0Ovr.png"
		},
		"small-checkout-button-image": {
			"type":"image",
			"image_name":"smallCheckBtn.png",
			"pressed_image_name":"smallCheckBtnOvr.png"
		},
		"large-checkout-button-image": {
			"type":"image",
			"image_name":"lrgCheckBtn.png",
			"pressed_image_name":"lrgCheckBtnOvr.png"
		},
		"reopen-order-button-image": {
			"type":"image",
			"image_name":"createOrderTab.png",
			"pressed_image_name":"createOrderTabOvr.png"
		},
		"order-list-paging-bar-image": {
			"type":"image",
			"image_name":"smallBar.png"
		},
		"orders-page-next-button-image": {
			"type":"image",
			"image_name":"nextBtn.png",
			"pressed_image_name":"nextBtnOvr.png"
		},
		"orders-page-previous-button-image":{
			"type":"image",
			"image_name":"previousBtn.png",
			"pressed_image_name":"previousBtnOvr.png"
		},
		"orders-page-previous-next-buttons-text":{
			"type": "font",
			"font-type": "Nanami-Lt",
			"font-size": "12px",
			"font-color": "#005596",
			"pressed-font-color": "#005596"
		},
		"orders-page-ticket-display-background-color":{
			"type": "color",
			"value": "#FFFFFF",
			"transparency": "0.9"
		},
		"orders-page-ticket-display-background-image":{
			"type":"image",
			"image_name":"orderSum.png"
		},
		"orders-page-cell-background-image":{
			"type": "image",
			"image_name":"collOrder.png",
			"pressed_image_name":"selCollOrder.png"
		},
		"orders-page-cell-order-details-text":{
			"type": "font",
			"font-type": "Nanami-Lt",
			"font-size": "17pt",
			"font-color": "#005596",
			"pressed-font-color": "#005596"
		},
		"orders-page-cell-order-time-name-text":{
			"type": "font",
			"font-type": "Nanami-Lt",
			"font-size": "12pt",
			"font-color": "#005596",
			"pressed-font-color": "#005596"
		},
		"orders-page-ticket-display-tag1-text":{
			"type": "font",
			"font-type": "Nanami-Lt",
			"font-size": "11pt",
			"font-color": "#005596",
			"pressed-font-color": "#005596"
		},
		"orders-page-ticket-display-tag2-text":{
			"type": "font",
			"font-type": "Nanami-Lt",
			"font-size": "16pt",
			"font-color": "#005596",
			"pressed-font-color": "#005596"
		},
		"orders-page-ticket-display-tag3-text":{
			"type": "font",
			"font-type": "Nanami-Lt",
			"font-size": "16pt",
			"font-color": "#cc0000",
			"pressed-font-color": "#005596"
		},
		"orders-page-ticket-display-tag4-text":{
			"type": "font",
			"font-type": "Nanami-Book",
			"font-size": "12pt",
			"font-color": "#555555",
			"pressed-font-color": "#555555"
		},
		"orders-page-ticket-display-tag-default-text":{
			"type": "font",
			"font-type": "Nanami-Lt",
			"font-size": "15px",
			"font-color": "#555555",
			"pressed-font-color": "#555555"
		},
		"orders-screen-server-name-text":{
			"type": "font",
			"font-type": "Nanami-Book",
			"font-size": "24pt",
			"font-color": "#005596"
		},
		"orders-page-x-of-y-paging-label-text":{
			"type": "font",
			"font-type": "Nanami-Lt",
			"font-size": "14pt",
			"font-color": "#005596"
		},
		"orders-page-server-filter-text":{
			"type": "font",
			"font-type": "Nanami-Lt",
			"font-size": "20pt",
			"font-color": "#005596"
		},
		"orders-page-open-closed-title-text":{
			"type": "font",
			"font-type": "Nanami-Book",
			"font-size": "20pt",
			"font-color": "#ffffff"
		}
	}
}